%!PS-Adobe-3.0 EPSF-3.0
%%Creator: cairo 1.10.2 (http://cairographics.org)
%%CreationDate: Wed Sep  5 15:04:22 2012
%%Pages: 1
%%BoundingBox: 0 -1 156 741
%%DocumentData: Clean7Bit
%%LanguageLevel: 2
%%EndComments
%%BeginProlog
/cairo_eps_state save def
/dict_count countdictstack def
/op_count count 1 sub def
userdict begin
/q { gsave } bind def
/Q { grestore } bind def
/cm { 6 array astore concat } bind def
/w { setlinewidth } bind def
/J { setlinecap } bind def
/j { setlinejoin } bind def
/M { setmiterlimit } bind def
/d { setdash } bind def
/m { moveto } bind def
/l { lineto } bind def
/c { curveto } bind def
/h { closepath } bind def
/re { exch dup neg 3 1 roll 5 3 roll moveto 0 rlineto
      0 exch rlineto 0 rlineto closepath } bind def
/S { stroke } bind def
/f { fill } bind def
/f* { eofill } bind def
/n { newpath } bind def
/W { clip } bind def
/W* { eoclip } bind def
/BT { } bind def
/ET { } bind def
/pdfmark where { pop globaldict /?pdfmark /exec load put }
    { globaldict begin /?pdfmark /pop load def /pdfmark
    /cleartomark load def end } ifelse
/BDC { mark 3 1 roll /BDC pdfmark } bind def
/EMC { mark /EMC pdfmark } bind def
/cairo_store_point { /cairo_point_y exch def /cairo_point_x exch def } def
/Tj { show currentpoint cairo_store_point } bind def
/TJ {
  {
    dup
    type /stringtype eq
    { show } { -0.001 mul 0 cairo_font_matrix dtransform rmoveto } ifelse
  } forall
  currentpoint cairo_store_point
} bind def
/cairo_selectfont { cairo_font_matrix aload pop pop pop 0 0 6 array astore
    cairo_font exch selectfont cairo_point_x cairo_point_y moveto } bind def
/Tf { pop /cairo_font exch def /cairo_font_matrix where
      { pop cairo_selectfont } if } bind def
/Td { matrix translate cairo_font_matrix matrix concatmatrix dup
      /cairo_font_matrix exch def dup 4 get exch 5 get cairo_store_point
      /cairo_font where { pop cairo_selectfont } if } bind def
/Tm { 2 copy 8 2 roll 6 array astore /cairo_font_matrix exch def
      cairo_store_point /cairo_font where { pop cairo_selectfont } if } bind def
/g { setgray } bind def
/rg { setrgbcolor } bind def
/d1 { setcachedevice } bind def
%%EndProlog
%%Page: 1 1
%%BeginPageSetup
%%PageBoundingBox: 0 -1 156 741
%%EndPageSetup
q 0 -1 156 742 rectclip q
0 740.005 156 -741 re W n
0 g
9.602 481.598 m 8.715 481.598 8 480.888 8 480.001 c 8 449.598 l 8 
448.712 8.715 448.001 9.602 448.001 c 34.398 448.001 l 35.285 448.001 
36 448.712 36 449.598 c 36 480.001 l 36 480.888 35.285 481.598 34.398 
481.598 c h
11.051 479.2 m 32.949 479.2 l 33.305 479.2 33.602 478.903 33.602 
478.552 c 33.602 451.052 l 33.602 450.696 33.305 450.399 32.949 450.399 
c 11.051 450.399 l 10.695 450.399 10.398 450.696 10.398 451.052 c 
10.398 478.552 l 10.398 478.903 10.695 479.2 11.051 479.2 c h
11.051 479.2 m f
6.051 355.927 m 5.262 355.684 4.801 354.845 4.801 353.677 c 4.801 
319.95 l 4.801 318.79 5.246 317.997 6.023 317.751 c 23.426 336.848 l h
9.074 355.001 m 24.5 338.024 l 29.648 343.677 l h
31.125 342.876 m 25.602 336.825 l 31.148 330.751 l 38.699 334.899 l 
40.102 335.688 40.648 336.052 40.648 336.802 c 40.648 337.548 40.102 
337.915 38.699 338.7 c h
24.523 335.626 m 9.023 318.626 l 29.699 329.95 l h
24.523 335.626 m f
4.801 18.399 m 4.801 15.2 l 41.602 15.2 l 41.602 18.399 l h
4.801 18.399 m f
62.199 12.001 m 62.199 9.598 l 89.801 9.598 l 89.801 12.001 l h
62.199 12.001 m f
106.801 4.802 m 106.801 3.2 l 125.199 3.2 l 125.199 4.802 l h
106.801 4.802 m f
139.5 1.598 m 139.5 0.001 l 153.301 0.001 l 153.301 1.598 l h
139.5 1.598 m f
23.688 673.595 m 14.324 673.595 6.738 666.005 6.738 656.645 c 6.738 
647.282 14.324 639.696 23.688 639.696 c 33.047 639.696 40.637 647.282 
40.637 656.645 c 40.637 666.005 33.047 673.595 23.688 673.595 c h
23.688 642.415 m 15.828 642.415 9.457 648.786 9.457 656.645 c 9.457 
664.505 15.828 670.876 23.688 670.876 c 31.547 670.876 37.918 664.501 
37.918 656.645 c 37.918 648.786 31.547 642.415 23.688 642.415 c h
23.688 642.415 m f
21.715 655.333 m 30.379 647.626 l 31.746 649.032 l 24.582 656.708 l 
23.973 668.126 l 22.176 668.126 l 21.555 656.548 l h
21.715 655.333 m f
32.98 677.356 m 32.004 674.63 l 36.543 672.52 40.156 668.763 42.051 
664.11 c 44.762 665.083 l 42.574 670.544 38.328 674.95 32.98 677.356 c 
h
32.98 677.356 m f
15.375 674.63 m 14.398 677.356 l 8.949 674.907 4.656 670.38 2.504 
664.778 c 5.215 663.809 l 7.074 668.598 10.734 672.481 15.375 674.63 c 
h
15.375 674.63 m f
76.262 663.212 m 69.168 663.212 63.422 657.462 63.422 650.368 c 63.422 
643.274 69.168 637.528 76.262 637.528 c 83.355 637.528 89.109 643.274 
89.109 650.368 c 89.109 657.462 83.355 663.212 76.262 663.212 c h
76.262 639.587 m 70.309 639.587 65.48 644.415 65.48 650.368 c 65.48 
656.325 70.309 661.153 76.262 661.153 c 82.219 661.153 87.047 656.325 
87.047 650.368 c 87.047 644.415 82.219 639.587 76.262 639.587 c h
76.262 639.587 m f
76.941 650.419 m 76.48 659.071 l 75.117 659.071 l 74.648 650.294 l 
74.77 649.376 l 81.332 643.536 l 82.371 644.598 l h
76.941 650.419 m f
83.305 666.063 m 82.566 663.997 l 86.008 662.399 88.746 659.552 90.18 
656.028 c 92.234 656.763 l 90.574 660.903 87.359 664.239 83.305 666.063 
c h
83.305 666.063 m f
69.965 663.997 m 69.223 666.063 l 65.098 664.208 61.844 660.778 60.211 
656.532 c 62.266 655.798 l 63.676 659.427 66.449 662.368 69.965 663.997 
c h
69.965 663.997 m f
111.574 654.7 m 111.375 654.626 l 108.555 653.356 106.34 651.001 
105.227 648.098 c 105.148 647.927 l 105.324 647.848 l 106.727 647.348 l 
106.898 647.302 l 106.977 647.473 l 107.902 649.864 109.711 651.802 
112.023 652.876 c 112.199 652.95 l 112.152 653.126 l 111.652 654.501 l 
h
120.801 654.7 m 120.727 654.501 l 120.227 653.126 l 120.148 652.95 l 
120.324 652.876 l 122.59 651.825 124.383 649.942 125.324 647.626 c 
125.398 647.45 l 125.602 647.501 l 126.977 648.001 l 127.176 648.075 l 
127.102 648.274 l 125.965 651.102 123.77 653.38 121 654.626 c h
116.176 652.501 m 111.41 652.501 107.551 648.661 107.551 643.899 c 
107.551 639.138 111.41 635.274 116.176 635.274 c 120.938 635.274 
124.801 639.138 124.801 643.899 c 124.801 648.661 120.938 652.501 
116.176 652.501 c h
116.176 650.774 m 119.977 650.774 123.074 647.7 123.074 643.899 c 
123.074 640.098 119.977 637.001 116.176 637.001 c 112.375 637.001 
109.301 640.098 109.301 643.899 c 109.301 647.7 112.375 650.774 116.176 
650.774 c h
115.398 649.802 m 115.102 643.899 l 115.176 643.274 l 119.574 639.348 l 
120.273 640.075 l 116.625 643.973 l 116.324 649.802 l h
115.398 649.802 m f
142.977 648.973 m 142.773 648.899 l 140.641 647.942 138.969 646.169 
138.125 643.973 c 138.051 643.774 l 138.25 643.7 l 139.273 643.348 l 
139.449 643.274 l 139.523 643.45 l 140.219 645.235 141.594 646.7 
143.324 647.501 c 143.477 647.575 l 143.426 647.723 l 143.051 648.774 l 
h
149.852 648.973 m 149.773 648.774 l 149.398 647.723 l 149.352 647.575 l 
149.523 647.501 l 151.219 646.716 152.547 645.309 153.25 643.575 c 
153.324 643.399 l 153.527 643.45 l 154.551 643.825 l 154.75 643.899 l 
154.676 644.098 l 153.816 646.239 152.145 647.958 150.051 648.899 c h
146.426 647.274 m 142.84 647.274 139.926 644.36 139.926 640.774 c 
139.926 637.192 142.84 634.302 146.426 634.302 c 150.008 634.302 
152.898 637.192 152.898 640.774 c 152.898 644.36 150.008 647.274 
146.426 647.274 c h
146.426 645.973 m 149.305 645.973 151.625 643.653 151.625 640.774 c 
151.625 637.899 149.305 635.575 146.426 635.575 c 143.547 635.575 
141.199 637.899 141.199 640.774 c 141.199 643.653 143.547 645.973 
146.426 645.973 c h
145.824 645.177 m 145.602 640.751 l 145.648 640.274 l 148.977 637.325 l 
149.5 637.848 l 146.75 640.802 l 146.523 645.177 l h
145.824 645.177 m f
23.199 290.399 m 13.48 290.399 5.602 282.52 5.602 272.802 c 5.602 
265.595 9.934 259.403 16.137 256.68 c 16.086 257.911 16.125 259.384 
16.441 260.723 c 16.781 262.149 18.707 270.313 18.707 270.313 c 18.707 
270.313 18.145 271.434 18.145 273.098 c 18.145 275.704 19.656 277.653 
21.539 277.653 c 23.141 277.653 23.914 276.45 23.914 275.013 c 23.914 
273.403 22.887 270.993 22.359 268.766 c 21.918 266.899 23.293 265.376 
25.137 265.376 c 28.473 265.376 30.715 269.657 30.715 274.731 c 30.715 
278.591 28.117 281.477 23.395 281.477 c 18.055 281.477 14.727 277.497 
14.727 273.048 c 14.727 271.516 15.18 270.434 15.887 269.595 c 16.215 
269.212 16.258 269.055 16.141 268.614 c 16.059 268.29 15.863 267.513 
15.781 267.204 c 15.664 266.759 15.305 266.598 14.902 266.763 c 12.441 
267.766 11.297 270.458 11.297 273.485 c 11.297 278.485 15.516 284.481 
23.875 284.481 c 30.598 284.481 35.02 279.618 35.02 274.399 c 35.02 
267.493 31.18 262.337 25.523 262.337 c 23.621 262.337 21.836 263.364 
21.223 264.532 c 21.223 264.532 20.199 260.473 19.984 259.692 c 19.609 
258.337 18.879 256.977 18.211 255.923 c 19.797 255.454 21.469 255.2 
23.199 255.2 c 32.918 255.2 40.801 263.079 40.801 272.802 c 40.801 
282.52 32.918 290.399 23.199 290.399 c f
23.195 226.399 m 13.477 226.399 5.602 218.524 5.602 208.805 c 5.602 
199.083 13.477 191.2 23.195 191.2 c 32.918 191.2 40.801 199.083 40.801 
208.805 c 40.801 218.524 32.918 226.399 23.195 226.399 c h
23.012 216.513 m 25.453 216.513 27.43 214.571 27.504 212.149 c 27.504 
210.731 l 25.453 210.11 l 24.078 210.759 l 24.078 211.993 l 24.078 
212.583 23.602 213.059 23.012 213.059 c 22.426 213.059 21.945 212.583 
21.945 211.993 c 21.938 205.575 l 21.906 203.122 19.906 201.138 17.441 
201.138 c 14.953 201.138 12.941 203.149 12.941 205.638 c 12.941 208.43 
l 16.383 208.43 l 16.383 205.673 l 16.383 205.083 16.859 204.606 17.449 
204.606 c 18.035 204.606 18.516 205.083 18.516 205.673 c 18.516 212.177 
l 18.602 214.587 20.582 216.513 23.012 216.513 c h
29.637 208.43 m 33.082 208.43 l 33.082 205.638 l 33.082 203.149 31.062 
201.138 28.578 201.138 c 26.105 201.138 24.102 203.13 24.078 205.598 c 
24.078 208.407 l 25.453 207.759 l 27.504 208.376 l 27.504 205.548 l 
27.504 204.958 27.98 204.481 28.57 204.481 c 29.156 204.481 29.637 
204.958 29.637 205.548 c h
29.637 208.43 m f
75.996 215.2 m 68.93 215.2 63.199 209.473 63.199 202.403 c 63.199 
195.333 68.93 189.598 75.996 189.598 c 83.066 189.598 88.801 195.333 
88.801 202.403 c 88.801 209.473 83.066 215.2 75.996 215.2 c h
75.863 208.009 m 77.637 208.009 79.078 206.598 79.129 204.837 c 79.129 
203.802 l 77.637 203.352 l 76.641 203.825 l 76.641 204.723 l 76.641 
205.149 76.293 205.497 75.863 205.497 c 75.438 205.497 75.09 205.149 
75.09 204.723 c 75.082 200.055 l 75.055 198.27 73.602 196.829 71.809 
196.829 c 70 196.829 68.539 198.29 68.539 200.098 c 68.539 202.13 l 
71.039 202.13 l 71.039 200.126 l 71.039 199.696 71.387 199.348 71.816 
199.348 c 72.242 199.348 72.59 199.696 72.59 200.126 c 72.59 204.856 l 
72.652 206.61 74.094 208.009 75.859 208.009 c h
80.68 202.13 m 83.188 202.13 l 83.188 200.098 l 83.188 198.29 81.719 
196.829 79.91 196.829 c 78.113 196.829 76.656 198.278 76.641 200.071 c 
76.641 202.114 l 77.637 201.645 l 79.129 202.095 l 79.129 200.036 l 
79.129 199.606 79.477 199.259 79.906 199.259 c 80.332 199.259 80.68 
199.606 80.68 200.036 c h
80.68 202.13 m f
116 205.134 m 110.953 205.134 106.867 201.044 106.867 196.001 c 106.867 
190.958 110.953 186.868 116 186.868 c 121.043 186.868 125.133 190.958 
125.133 196.001 c 125.133 201.044 121.043 205.134 116 205.134 c h
115.902 200.001 m 117.168 200.001 118.195 198.993 118.234 197.739 c 
118.234 197.001 l 117.168 196.68 l 116.457 197.016 l 116.457 197.657 l 
116.457 197.962 116.207 198.212 115.902 198.212 c 115.598 198.212 
115.352 197.962 115.352 197.657 c 115.34 194.329 l 115.324 193.052 
114.285 192.024 113.008 192.024 c 111.719 192.024 110.672 193.067 
110.672 194.356 c 110.672 195.805 l 112.457 195.805 l 112.457 194.376 l 
112.457 194.071 112.707 193.825 113.012 193.825 c 113.316 193.825 
113.566 194.071 113.566 194.376 c 113.566 197.751 l 113.609 199.005 
114.637 200.001 115.898 200.001 c h
119.34 195.805 m 121.129 195.805 l 121.129 194.356 l 121.129 193.067 
120.082 192.024 118.789 192.024 c 117.508 192.024 116.469 193.059 
116.457 194.341 c 116.457 195.798 l 117.168 195.462 l 118.234 195.782 l 
118.234 194.313 l 118.234 194.009 118.48 193.759 118.785 193.759 c 
119.09 193.759 119.34 194.009 119.34 194.313 c h
119.34 195.805 m f
146.574 199.692 m 142.812 199.692 139.762 196.645 139.762 192.884 c 
139.762 189.118 142.812 186.067 146.574 186.067 c 150.336 186.067 
153.387 189.118 153.387 192.884 c 153.387 196.645 150.336 199.692 
146.574 199.692 c h
146.504 195.868 m 147.445 195.868 148.211 195.114 148.242 194.177 c 
148.242 193.626 l 147.445 193.388 l 146.914 193.638 l 146.914 194.118 l 
146.914 194.345 146.73 194.528 146.504 194.528 c 146.273 194.528 146.09 
194.345 146.09 194.118 c 146.09 191.634 l 146.074 190.68 145.301 
189.915 144.348 189.915 c 143.387 189.915 142.605 190.692 142.605 
191.657 c 142.605 192.735 l 143.938 192.735 l 143.938 191.669 l 143.938 
191.442 144.125 191.259 144.352 191.259 c 144.578 191.259 144.766 
191.442 144.766 191.669 c 144.766 194.188 l 144.797 195.122 145.562 
195.868 146.504 195.868 c h
149.066 192.735 m 150.398 192.735 l 150.398 191.657 l 150.398 190.692 
149.617 189.915 148.656 189.915 c 147.699 189.915 146.922 190.684 
146.914 191.641 c 146.914 192.727 l 147.445 192.477 l 148.242 192.716 l 
148.242 191.622 l 148.242 191.395 148.426 191.208 148.652 191.208 c 
148.883 191.208 149.066 191.395 149.066 191.622 c h
149.066 192.735 m f
76 279.2 m 68.93 279.2 63.199 273.47 63.199 266.399 c 63.199 261.161 
66.352 256.657 70.863 254.677 c 70.824 255.571 70.855 256.641 71.086 
257.614 c 71.332 258.653 72.73 264.591 72.73 264.591 c 72.73 264.591 
72.324 265.407 72.324 266.614 c 72.324 268.513 73.422 269.93 74.793 
269.93 c 75.957 269.93 76.52 269.055 76.52 268.009 c 76.52 266.837 
75.773 265.087 75.387 263.466 c 75.066 262.106 76.07 261.001 77.406 
261.001 c 79.832 261.001 81.465 264.114 81.465 267.805 c 81.465 270.61 
79.578 272.712 76.141 272.712 c 72.258 272.712 69.84 269.813 69.84 
266.579 c 69.84 265.466 70.168 264.68 70.684 264.071 c 70.918 263.79 
70.953 263.677 70.867 263.356 c 70.805 263.122 70.664 262.555 70.605 
262.329 c 70.52 262.005 70.258 261.888 69.965 262.009 c 68.176 262.739 
67.344 264.696 67.344 266.899 c 67.344 270.536 70.41 274.895 76.492 
274.895 c 81.379 274.895 84.594 271.36 84.594 267.563 c 84.594 262.54 
81.805 258.79 77.688 258.79 c 76.309 258.79 75.008 259.536 74.562 
260.388 c 74.562 260.388 73.82 257.438 73.66 256.868 c 73.391 255.88 
72.859 254.895 72.371 254.126 c 73.523 253.786 74.738 253.598 76 
253.598 c 83.07 253.598 88.801 259.333 88.801 266.399 c 88.801 273.47 
83.07 279.2 76 279.2 c f
116 268.802 m 111.141 268.802 107.199 264.86 107.199 260.001 c 107.199 
256.395 109.367 253.302 112.469 251.938 c 112.441 252.555 112.469 
253.294 112.621 253.962 c 112.789 254.677 113.754 258.755 113.754 
258.755 c 113.754 258.755 113.473 259.317 113.473 260.149 c 113.473 
261.454 114.227 262.427 115.168 262.427 c 115.969 262.427 116.355 
261.825 116.355 261.106 c 116.355 260.302 115.844 259.098 115.578 
257.981 c 115.359 257.048 116.047 256.286 116.969 256.286 c 118.637 
256.286 119.758 258.43 119.758 260.966 c 119.758 262.895 118.461 
264.337 116.098 264.337 c 113.426 264.337 111.766 262.348 111.766 
260.126 c 111.766 259.356 111.992 258.817 112.344 258.399 c 112.508 
258.204 112.531 258.13 112.473 257.907 c 112.43 257.747 112.332 257.356 
112.293 257.2 c 112.234 256.977 112.051 256.899 111.852 256.981 c 
110.621 257.481 110.047 258.829 110.047 260.345 c 110.047 262.845 
112.156 265.841 116.34 265.841 c 119.699 265.841 121.91 263.411 121.91 
260.798 c 121.91 257.348 119.988 254.766 117.16 254.766 c 116.211 
254.766 115.316 255.282 115.012 255.864 c 115.012 255.864 114.5 253.837 
114.391 253.446 c 114.207 252.766 113.84 252.091 113.508 251.559 c 
114.297 251.329 115.133 251.2 116 251.2 c 120.859 251.2 124.801 255.141 
124.801 260.001 c 124.801 264.86 120.859 268.802 116 268.802 c f
146.398 264.001 m 142.426 264.001 139.199 260.778 139.199 256.802 c 
139.199 253.852 140.973 251.317 143.512 250.204 c 143.488 250.708 
143.512 251.313 143.637 251.86 c 143.773 252.442 144.562 255.782 
144.562 255.782 c 144.562 255.782 144.332 256.243 144.332 256.923 c 
144.332 257.989 144.949 258.786 145.719 258.786 c 146.375 258.786 
146.691 258.294 146.691 257.704 c 146.691 257.048 146.273 256.059 
146.055 255.149 c 145.875 254.384 146.438 253.763 147.191 253.763 c 
148.555 253.763 149.477 255.516 149.477 257.591 c 149.477 259.169 
148.414 260.348 146.48 260.348 c 144.297 260.348 142.934 258.72 142.934 
256.903 c 142.934 256.274 143.121 255.833 143.41 255.489 c 143.543 
255.333 143.562 255.27 143.512 255.087 c 143.477 254.954 143.398 
254.638 143.367 254.509 c 143.316 254.329 143.172 254.263 143.004 
254.329 c 142 254.739 141.531 255.841 141.531 257.079 c 141.531 259.126 
143.254 261.579 146.676 261.579 c 149.426 261.579 151.234 259.591 
151.234 257.454 c 151.234 254.63 149.664 252.52 147.352 252.52 c 
146.574 252.52 145.84 252.938 145.59 253.419 c 145.59 253.419 145.172 
251.759 145.086 251.438 c 144.934 250.884 144.633 250.329 144.359 
249.895 c 145.008 249.704 145.691 249.598 146.398 249.598 c 150.375 
249.598 153.602 252.825 153.602 256.802 c 153.602 260.778 150.375 
264.001 146.398 264.001 c f
23.184 728.419 m 18.977 728.415 15.57 724.993 15.578 720.786 c 15.586 
716.579 19.008 713.173 23.215 713.18 c 27.422 713.188 30.828 716.606 
30.82 720.817 c 30.812 725.024 27.395 728.43 23.184 728.419 c h
23.184 728.419 m f
42.395 721.923 m 37.848 721.915 l 37.301 729.157 31.5 734.934 24.258 
735.454 c 24.246 740.005 l 22.074 740.001 l 22.082 735.45 l 14.844 
734.903 9.066 729.102 8.547 721.86 c 3.996 721.848 l 4 719.68 l 8.547 
719.688 l 9.098 712.446 14.898 706.669 22.141 706.149 c 22.148 701.598 
l 24.32 701.598 l 24.312 706.153 l 31.555 706.7 37.332 712.501 37.852 
719.747 c 42.402 719.755 l h
23.223 708.27 m 16.309 708.255 10.68 713.864 10.664 720.778 c 10.652 
727.688 16.262 733.325 23.176 733.337 c 30.086 733.348 35.723 727.739 
35.734 720.825 c 35.75 713.915 30.133 708.282 23.223 708.27 c h
23.223 708.27 m f
23.199 160.802 m 13.922 160.802 6.398 153.278 6.398 144.001 c 0 144.001 
l 8.398 133.598 l 16.801 144.001 l 10.352 144.001 l 10.352 151.106 
16.098 156.876 23.199 156.876 c 30.305 156.876 36.074 151.106 36.074 
144.001 c 36.074 136.895 30.305 131.149 23.199 131.149 c 20.98 131.149 
18.895 131.712 17.074 132.7 c 14.574 129.598 l 17.098 128.087 20.043 
127.2 23.199 127.2 c 32.477 127.2 40 134.723 40 144.001 c 40 153.278 
32.477 160.802 23.199 160.802 c h
23.199 160.802 m f
76.492 151.501 m 69.254 151.501 63.391 145.634 63.391 138.399 c 58.398 
138.399 l 64.949 130.29 l 71.5 138.399 l 66.469 138.399 l 66.469 
143.938 70.949 148.438 76.492 148.438 c 82.031 148.438 86.531 143.938 
86.531 138.399 c 86.531 132.86 82.031 128.38 76.492 128.38 c 74.758 
128.38 73.133 128.817 71.715 129.591 c 69.766 127.173 l 71.734 125.989 
74.027 125.302 76.492 125.302 c 83.727 125.302 89.59 131.165 89.59 
138.399 c 89.59 145.634 83.727 151.501 76.492 151.501 c h
76.492 151.501 m f
116.062 140.735 m 111.238 140.735 107.328 136.825 107.328 132.001 c 104 
132.001 l 108.367 126.591 l 112.734 132.001 l 109.383 132.001 l 109.383 
135.696 112.371 138.696 116.062 138.696 c 119.758 138.696 122.758 
135.696 122.758 132.001 c 122.758 128.305 119.758 125.317 116.062 
125.317 c 114.91 125.317 113.824 125.61 112.879 126.126 c 111.578 
124.513 l 112.891 123.723 114.422 123.263 116.062 123.263 c 120.891 
123.263 124.801 127.177 124.801 132.001 c 124.801 136.825 120.891 
140.735 116.062 140.735 c h
116.062 140.735 m f
146.418 135.184 m 142.891 135.184 140.031 132.325 140.031 128.802 c 
137.602 128.802 l 140.793 124.848 l 143.984 128.802 l 141.531 128.802 l 
141.531 131.501 143.715 133.692 146.418 133.692 c 149.117 133.692 
151.309 131.501 151.309 128.802 c 151.309 126.098 149.117 123.919 
146.418 123.919 c 145.574 123.919 144.781 124.13 144.09 124.505 c 
143.137 123.329 l 144.098 122.751 145.215 122.415 146.418 122.415 c 
149.941 122.415 152.801 125.274 152.801 128.802 c 152.801 132.325 
149.941 135.184 146.418 135.184 c h
146.418 135.184 m f
23.199 96.802 m 32.477 96.802 40 89.278 40 80.001 c 46.398 80.001 l 38 
69.598 l 29.602 80.001 l 36.051 80.001 l 36.051 87.106 30.305 92.876 
23.199 92.876 c 16.094 92.876 10.324 87.106 10.324 80.001 c 10.324 
72.895 16.094 67.149 23.199 67.149 c 25.422 67.149 27.504 67.712 29.324 
68.7 c 31.824 65.598 l 29.301 64.087 26.359 63.2 23.199 63.2 c 13.922 
63.2 6.398 70.723 6.398 80.001 c 6.398 89.278 13.922 96.802 23.199 
96.802 c h
23.199 96.802 m f
75.508 87.501 m 82.746 87.501 88.609 81.634 88.609 74.399 c 93.602 
74.399 l 87.051 66.29 l 80.5 74.399 l 85.531 74.399 l 85.531 79.938 
81.051 84.438 75.508 84.438 c 69.969 84.438 65.469 79.938 65.469 74.399 
c 65.469 68.86 69.969 64.38 75.508 64.38 c 77.242 64.38 78.867 64.817 
80.285 65.591 c 82.234 63.173 l 80.266 61.989 77.973 61.302 75.508 
61.302 c 68.273 61.302 62.41 67.165 62.41 74.399 c 62.41 81.634 68.273 
87.501 75.508 87.501 c h
75.508 87.501 m f
115.938 76.735 m 120.762 76.735 124.672 72.825 124.672 68.001 c 128 
68.001 l 123.633 62.591 l 119.266 68.001 l 122.617 68.001 l 122.617 
71.696 119.629 74.696 115.938 74.696 c 112.242 74.696 109.242 71.696 
109.242 68.001 c 109.242 64.305 112.242 61.317 115.938 61.317 c 117.09 
61.317 118.176 61.61 119.121 62.126 c 120.422 60.513 l 119.109 59.723 
117.578 59.263 115.938 59.263 c 111.109 59.263 107.199 63.177 107.199 
68.001 c 107.199 72.825 111.109 76.735 115.938 76.735 c h
115.938 76.735 m f
146.383 71.184 m 149.91 71.184 152.77 68.325 152.77 64.802 c 155.199 
64.802 l 152.008 60.848 l 148.816 64.802 l 151.266 64.802 l 151.266 
67.501 149.082 69.692 146.383 69.692 c 143.684 69.692 141.492 67.501 
141.492 64.802 c 141.492 62.098 143.684 59.919 146.383 59.919 c 147.227 
59.919 148.02 60.13 148.711 60.505 c 149.66 59.329 l 148.703 58.751 
147.582 58.415 146.383 58.415 c 142.859 58.415 140 61.274 140 64.802 c 
140 68.325 142.859 71.184 146.383 71.184 c h
146.383 71.184 m f
75.988 720.114 m 72.832 720.11 70.277 717.544 70.285 714.388 c 70.289 
711.235 72.855 708.68 76.012 708.688 c 79.164 708.692 81.719 711.255 
81.715 714.411 c 81.707 717.567 79.145 720.122 75.988 720.114 c h
75.988 720.114 m f
90.395 715.243 m 86.984 715.235 l 86.574 720.669 82.227 725.001 76.793 
725.391 c 76.785 728.802 l 75.156 728.798 l 75.164 725.384 l 69.734 
724.973 65.402 720.626 65.012 715.196 c 61.602 715.188 l 61.602 713.559 
l 65.012 713.567 l 65.426 708.138 69.773 703.805 75.207 703.415 c 
75.211 700.001 l 76.84 700.001 l 76.832 703.419 l 82.266 703.829 86.598 
708.177 86.988 713.61 c 90.398 713.614 l h
76.016 705.005 m 70.832 704.993 66.609 709.2 66.602 714.384 c 66.59 
719.567 70.797 723.79 75.98 723.802 c 81.164 723.809 85.391 719.602 
85.398 714.419 c 85.41 709.235 81.199 705.013 76.016 705.005 c h
76.016 705.005 m f
115.594 711.411 m 113.492 711.407 111.789 709.7 111.789 707.595 c 
111.797 705.493 113.504 703.79 115.609 703.794 c 117.711 703.798 
119.414 705.505 119.41 707.61 c 119.41 709.716 117.699 711.419 115.594 
711.411 c h
115.594 711.411 m f
125.199 708.165 m 122.926 708.161 l 122.652 711.782 119.754 714.669 
116.129 714.93 c 116.125 717.204 l 115.039 717.204 l 115.043 714.927 l 
111.422 714.653 108.535 711.755 108.273 708.13 c 106 708.126 l 106 
707.04 l 108.277 707.048 l 108.551 703.427 111.449 700.536 115.074 
700.278 c 115.078 698.001 l 116.164 698.001 l 116.156 700.278 l 119.777 
700.552 122.668 703.454 122.93 707.075 c 125.203 707.079 l h
115.613 701.337 m 112.156 701.329 109.34 704.134 109.336 707.591 c 
109.328 711.048 112.133 713.864 115.59 713.872 c 119.047 713.876 
121.863 711.071 121.867 707.614 c 121.875 704.157 119.066 701.341 
115.613 701.337 c h
115.613 701.337 m f
145.996 707.259 m 144.418 707.255 143.141 705.973 143.145 704.395 c 
143.145 702.817 144.43 701.54 146.008 701.544 c 147.586 701.548 148.863 
702.829 148.859 704.407 c 148.855 705.985 147.574 707.263 145.996 
707.259 c h
145.996 707.259 m f
153.199 704.821 m 151.496 704.821 l 151.289 707.536 149.113 709.704 
146.398 709.895 c 146.395 711.602 l 145.578 711.602 l 145.582 709.895 l 
142.867 709.688 140.699 707.516 140.508 704.798 c 138.801 704.794 l 
138.801 703.981 l 140.508 703.985 l 140.715 701.27 142.887 699.102 
145.605 698.907 c 145.609 697.2 l 146.422 697.2 l 146.418 698.911 l 
149.133 699.114 151.301 701.29 151.496 704.005 c 153.203 704.009 l h
146.008 699.7 m 143.418 699.696 141.305 701.802 141.301 704.391 c 
141.297 706.985 143.398 709.098 145.992 709.102 c 148.586 709.106 
150.695 707.005 150.703 704.411 c 150.707 701.817 148.602 699.708 
146.008 699.7 c h
146.008 699.7 m f
4 606.399 m 4 582.399 l 4 580.626 5.426 579.2 7.199 579.2 c 39.199 
579.2 l 40.973 579.2 42.398 580.626 42.398 582.399 c 42.398 600.802 l 
39.199 600.802 l 39.199 606.399 l h
6.398 604.001 m 36.801 604.001 l 36.801 584.802 l 36.801 583.028 37.512 
581.598 38.398 581.598 c 7.977 581.598 l 7.109 581.598 6.398 582.309 
6.398 583.177 c h
9.602 600.001 m 9.602 598.399 l 33.602 598.399 l 33.602 600.001 l h
9.602 596.001 m 9.602 586.399 l 16.801 586.399 l 16.801 596.001 l h
19.199 596.001 m 19.199 594.399 l 33.602 594.399 l 33.602 596.001 l h
19.199 592.001 m 19.199 590.399 l 33.602 590.399 l 33.602 592.001 l h
19.199 588.001 m 19.199 586.399 l 33.602 586.399 l 33.602 588.001 l h
19.199 588.001 m f
61.602 596.802 m 61.602 578.45 l 61.602 577.095 62.672 576.001 64 
576.001 c 88 576.001 l 89.328 576.001 90.398 577.095 90.398 578.45 c 
90.398 592.802 l 88 592.802 l 88 596.802 l h
63.199 595.2 m 86.398 595.2 l 86.398 580.126 l 86.398 578.731 86.949 
577.598 87.625 577.598 c 64.398 577.598 l 63.738 577.598 63.199 578.169 
63.199 578.848 c h
63.199 595.2 m f
65.602 592.001 m 65.602 590.848 l 84 590.848 l 84 592.001 l h
65.602 592.001 m f
65.602 588.848 m 65.602 581.505 l 71.199 581.505 l 71.199 588.848 l h
65.602 588.848 m f
73.082 588.848 m 73.082 587.622 l 84 587.622 l 84 588.848 l h
73.082 588.848 m f
73.082 585.79 m 73.082 584.563 l 84 584.563 l 84 585.79 l h
73.082 585.79 m f
73.082 582.731 m 73.082 581.505 l 84 581.505 l 84 582.731 l h
73.082 582.731 m f
105.602 587.243 m 105.602 574.501 l 105.602 573.559 106.344 572.802 
107.266 572.802 c 123.934 572.802 l 124.855 572.802 125.602 573.559 
125.602 574.501 c 125.602 584.466 l 123.934 584.466 l 123.934 587.243 l 
h
106.711 586.134 m 122.82 586.134 l 122.82 575.665 l 122.82 574.696 
123.203 573.911 123.672 573.911 c 107.543 573.911 l 107.086 573.911 
106.711 574.305 106.711 574.778 c h
106.711 586.134 m f
108.801 584.001 m 108.801 583.212 l 120.801 583.212 l 120.801 584.001 l 
h
108.801 584.001 m f
108.801 581.598 m 108.801 576.013 l 112.453 576.013 l 112.453 581.598 l 
h
108.801 581.598 m f
113.68 581.641 m 113.68 580.802 l 120.801 580.802 l 120.801 581.641 l h
113.68 581.641 m f
113.68 579.2 m 113.68 578.36 l 120.801 578.36 l 120.801 579.2 l h
113.68 579.2 m f
113.68 576.802 m 113.68 575.962 l 120.801 575.962 l 120.801 576.802 l h
113.68 576.802 m f
139.199 581.598 m 139.199 573.126 l 139.199 572.501 139.695 572.001 
140.324 572.001 c 152.051 572.001 l 152.68 572.001 153.602 572.501 
153.602 573.126 c 153.602 579.626 l 152.051 579.626 l 152.051 581.598 l 
150.926 581.598 l h
140 580.802 m 151.199 580.802 l 151.199 573.95 l 151.199 573.317 
151.461 572.802 151.773 572.802 c 140.551 572.802 l 140.242 572.802 140 
573.04 140 573.348 c h
140 580.802 m f
140.801 579.2 m 140.801 578.399 l 150.398 578.399 l 150.398 579.2 l h
140.801 579.2 m f
140.801 577.598 m 140.801 575.2 l 143.199 575.2 l 143.199 577.598 l h
140.801 577.598 m f
144 577.598 m 144 576.802 l 150.398 576.802 l 150.398 577.598 l h
144 577.598 m f
144 576.001 m 144 575.2 l 150.398 575.2 l 150.398 576.001 l h
144 576.001 m f
63.293 344.059 m 62.73 343.888 62.398 343.29 62.398 342.454 c 62.398 
318.372 l 62.398 317.54 62.719 316.977 63.273 316.802 c 75.699 330.438 
l h
65.453 343.399 m 76.469 331.278 l 80.145 335.313 l h
81.199 334.743 m 77.254 330.423 l 81.215 326.083 l 86.609 329.048 l 
87.609 329.606 88 329.868 88 330.403 c 88 330.938 87.609 331.2 86.609 
331.759 c h
76.484 329.563 m 65.418 317.427 l 80.18 325.513 l h
76.484 329.563 m f
107.027 333.598 m 106.633 333.477 106.398 333.055 106.398 332.47 c 
106.398 315.505 l 106.398 314.923 106.625 314.524 107.016 314.399 c 
115.766 324.005 l h
108.551 333.134 m 116.309 324.598 l 118.898 327.438 l h
119.641 327.036 m 116.863 323.993 l 119.652 320.938 l 123.449 323.024 l 
124.156 323.423 124.43 323.606 124.43 323.981 c 124.43 324.356 124.156 
324.54 123.449 324.938 c h
116.32 323.391 m 108.523 314.841 l 118.922 320.536 l h
116.32 323.391 m f
139.676 328.001 m 139.379 327.911 139.199 327.591 139.199 327.149 c 
139.199 314.427 l 139.199 313.985 139.355 313.692 139.648 313.598 c 
146.227 320.802 l h
141.051 327.649 m 146.875 321.251 l 148.801 323.376 l h
149.602 323.075 m 147.523 320.802 l 149.602 318.501 l 152.449 320.075 l 
152.98 320.372 153.199 320.493 153.199 320.774 c 153.199 321.055 152.98 
321.204 152.449 321.501 c h
146.875 320.348 m 141.023 313.927 l 148.824 318.2 l h
146.875 320.348 m f
23.199 417.598 m 20.105 417.598 17.602 415.095 17.602 412.001 c 17.602 
410.763 17.996 409.626 18.676 408.7 c 19.133 403.692 20 399.294 20 
393.598 c 19.199 392.001 l 20 390.399 l 26.398 390.399 l 27.199 392.001 
l 26.398 393.598 l 26.398 399.294 27.27 403.692 27.727 408.7 c 28.406 
409.626 28.801 410.763 28.801 412.001 c 28.801 415.095 26.293 417.598 
23.199 417.598 c h
10.398 388.802 m 8 381.598 l 38.398 381.598 l 36 388.802 l h
10.398 388.802 m f
76 406.528 m 73.723 406.528 71.875 404.68 71.875 402.399 c 71.875 
401.489 72.164 400.653 72.664 399.97 c 73.004 396.278 73.641 393.755 
73.641 389.559 c 73.051 388.38 l 73.641 387.2 l 78.359 387.2 l 78.949 
388.38 l 78.359 389.559 l 78.359 393.755 78.996 396.278 79.336 399.97 c 
79.836 400.653 80.125 401.489 80.125 402.399 c 80.125 404.68 78.277 
406.528 76 406.528 c h
66.57 385.598 m 64.801 380.001 l 87.199 380.001 l 85.43 385.598 l h
66.57 385.598 m f
116 397.348 m 114.371 397.348 113.051 396.028 113.051 394.399 c 113.051 
393.747 113.262 393.149 113.617 392.665 c 113.859 390.028 114.316 
387.841 114.316 384.841 c 113.895 384.001 l 114.316 383.157 l 117.684 
383.157 l 118.105 384.001 l 117.684 384.841 l 117.684 387.841 118.141 
390.028 118.383 392.665 c 118.738 393.149 118.949 393.747 118.949 
394.399 c 118.949 396.028 117.629 397.348 116 397.348 c h
109.262 382.399 m 108 378.399 l 124 378.399 l 122.738 382.399 l h
109.262 382.399 m f
146.398 392.759 m 145.098 392.759 144.043 391.704 144.043 390.399 c 
144.043 389.88 144.207 389.399 144.496 389.009 c 144.688 386.903 
145.051 385.345 145.051 382.946 c 144.715 382.274 l 145.051 381.598 l 
147.746 381.598 l 148.086 382.274 l 147.746 382.946 l 147.746 385.345 
148.113 386.903 148.305 389.009 c 148.59 389.399 148.758 389.88 148.758 
390.399 c 148.758 391.704 147.703 392.759 146.398 392.759 c h
141.012 380.802 m 140 377.598 l 152.801 377.598 l 151.789 380.802 l h
141.012 380.802 m f
13.602 475.2 16.797 -4 re f
13.602 468.802 4 -3.203 re f
20 468.802 4 -3.203 re f
26.398 468.802 4 -3.203 re f
13.602 463.2 4 -3.199 re f
20 463.2 4 -3.199 re f
26.398 463.2 4 -3.199 re f
13.602 457.598 4 -3.199 re f
20 457.598 4 -3.199 re f
26.398 457.598 4 -3.199 re f
66.789 470.399 m 66.129 470.399 65.602 469.856 65.602 469.18 c 65.602 
446.817 l 65.602 446.145 66.129 445.598 66.789 445.598 c 85.211 445.598 
l 85.871 445.598 86.398 446.145 86.398 446.817 c 86.398 469.18 l 86.398 
469.856 85.871 470.399 85.211 470.399 c h
67.867 468.571 m 84.133 468.571 l 84.398 468.571 84.617 468.345 84.617 
468.075 c 84.617 447.923 l 84.617 447.653 84.398 447.43 84.133 447.43 c 
67.867 447.43 l 67.602 447.43 67.383 447.653 67.383 447.923 c 67.383 
468.075 l 67.383 468.345 67.602 468.571 67.867 468.571 c h
67.867 468.571 m f
69.602 465.598 12.797 -3.199 re f
69.602 460.802 3.199 -2.492 re f
74.398 460.802 3.203 -2.492 re f
79.199 460.802 3.199 -2.492 re f
69.602 456.888 3.199 -2.488 re f
74.398 456.888 3.203 -2.488 re f
79.199 456.888 3.199 -2.488 re f
69.602 452.888 3.199 -2.488 re f
74.398 452.888 3.203 -2.488 re f
79.199 452.888 3.199 -2.488 re f
109.621 461.598 m 109.168 461.598 108.801 461.227 108.801 460.763 c 
108.801 444.04 l 108.801 443.575 109.168 443.2 109.621 443.2 c 122.379 
443.2 l 122.832 443.2 123.199 443.575 123.199 444.04 c 123.199 460.763 
l 123.199 461.227 122.832 461.598 122.379 461.598 c h
110.367 460.345 m 121.633 460.345 l 121.812 460.345 121.965 460.188 
121.965 460.001 c 121.965 444.798 l 121.965 444.61 121.812 444.458 
121.633 444.458 c 110.367 444.458 l 110.188 444.458 110.035 444.61 
110.035 444.798 c 110.035 460.001 l 110.035 460.188 110.188 460.345 
110.367 460.345 c h
110.367 460.345 m f
112 458.399 8 -2.398 re f
112 454.399 1.906 -1.598 re f
115.047 454.399 1.906 -1.598 re f
118.094 454.399 1.906 -1.598 re f
112 451.2 1.906 -1.602 re f
115.047 451.2 1.906 -1.602 re f
118.094 451.2 1.906 -1.602 re f
112 448.001 1.906 -1.602 re f
115.047 448.001 1.906 -1.602 re f
118.094 448.001 1.906 -1.602 re f
140.688 456.001 m 140.305 456.001 140 455.696 140 455.313 c 140 442.286 
l 140 441.907 140.305 441.598 140.688 441.598 c 151.312 441.598 l 
151.695 441.598 152 441.907 152 442.286 c 152 455.313 l 152 455.696 
151.695 456.001 151.312 456.001 c h
141.309 454.97 m 150.691 454.97 l 150.844 454.97 150.973 454.845 
150.973 454.692 c 150.973 442.907 l 150.973 442.755 150.844 442.63 
150.691 442.63 c 141.309 442.63 l 141.156 442.63 141.027 442.755 
141.027 442.907 c 141.027 454.692 l 141.027 454.845 141.156 454.97 
141.309 454.97 c h
141.309 454.97 m f
142.402 453.598 7.199 -1.715 re f
142.402 450.173 1.711 -1.371 re f
145.145 450.173 1.711 -1.371 re f
147.887 450.173 1.715 -1.371 re f
142.402 447.77 1.711 -1.371 re f
145.145 447.77 1.711 -1.371 re f
147.887 447.77 1.715 -1.371 re f
142.402 444.915 1.711 -1.371 re f
145.145 444.915 1.711 -1.371 re f
147.887 444.915 1.715 -1.371 re f
4 544.001 m 4 526.501 l 0.426 522.649 l 2.773 520.473 l 12.352 530.774 
l 20.352 523.552 l 26.625 529.825 l 30.75 526.524 l 44.324 540.126 l 
42.074 542.399 l 30.523 530.825 l 26.398 534.126 l 20.25 527.95 l 
12.148 535.251 l 8.801 531.649 l 8.801 544.001 l h
8.801 523.376 m 4 518.223 l 4 512.001 l 42.398 512.001 l 42.398 516.802 
l 8.801 516.802 l h
8.801 523.376 m f
62.398 532.802 m 62.398 520.704 l 59.738 517.966 l 61.406 516.423 l 
68.211 523.739 l 73.895 518.606 l 78.352 523.063 l 81.285 520.72 l 
90.93 530.384 l 89.332 532.001 l 81.125 523.774 l 78.191 526.122 l 
73.824 521.731 l 68.066 526.919 l 65.688 524.36 l 65.688 532.802 l h
65.602 518.481 m 62.398 514.821 l 62.398 510.399 l 89.562 510.399 l 
89.562 513.598 l 65.602 513.598 l h
65.602 518.481 m f
106.398 523.653 m 106.398 515.095 l 104.652 513.212 l 105.801 512.145 l 
110.484 517.184 l 114.398 513.649 l 117.469 516.72 l 119.484 515.106 l 
126.125 521.759 l 125.027 522.872 l 119.375 517.208 l 117.359 518.825 l 
114.348 515.802 l 110.387 519.372 l 108.801 517.614 l 108.801 523.653 l 
h
108.801 513.563 m 106.398 511.044 l 106.398 508.001 l 125.184 508.001 l 
125.184 510.399 l 108.801 510.399 l h
108.801 513.563 m f
139.938 518.399 m 139.938 512.274 l 138.684 510.927 l 139.508 510.165 l 
142.859 513.77 l 145.66 511.243 l 147.855 513.438 l 149.297 512.282 l 
154.051 517.044 l 153.262 517.841 l 149.219 513.79 l 147.777 514.942 l 
145.625 512.782 l 142.789 515.337 l 141.652 514.079 l 141.652 518.399 l 
h
141.652 510.665 m 139.938 508.864 l 139.938 507.2 l 153.375 507.2 l 
153.375 508.919 l 141.652 508.919 l h
141.652 510.665 m f
Q Q
showpage
%%Trailer
count op_count sub {pop} repeat
countdictstack dict_count sub {end} repeat
cairo_eps_state restore
%%EOF
