<?xml version="1.0" encoding="UTF-8" standalone="no"?>
<!-- Created with Inkscape (http://www.inkscape.org/) -->

<svg
   xmlns:dc="http://purl.org/dc/elements/1.1/"
   xmlns:cc="http://creativecommons.org/ns#"
   xmlns:rdf="http://www.w3.org/1999/02/22-rdf-syntax-ns#"
   xmlns:svg="http://www.w3.org/2000/svg"
   xmlns="http://www.w3.org/2000/svg"
   xmlns:sodipodi="http://sodipodi.sourceforge.net/DTD/sodipodi-0.dtd"
   xmlns:inkscape="http://www.inkscape.org/namespaces/inkscape"
   width="475"
   height="1143"
   id="svg2"
   sodipodi:version="0.32"
   inkscape:version="0.48.3.1 r9886"
   sodipodi:docname="adi_source_2.1.svg"
   inkscape:output_extension="org.inkscape.output.svg.inkscape"
   inkscape:export-filename="/home/guenther/Dropbox/Android/androidicons.com/Developer Icons/2.1/adi_bonus_2.1.png"
   inkscape:export-xdpi="90"
   inkscape:export-ydpi="90"
   version="1.1"
   style="enable-background:new">
  <sodipodi:namedview
     id="base"
     pagecolor="#ffffff"
     bordercolor="#666666"
     borderopacity="1.0"
     inkscape:pageopacity="0"
     inkscape:pageshadow="2"
     inkscape:zoom="0.315625"
     inkscape:cx="187.75474"
     inkscape:cy="309.93271"
     inkscape:document-units="px"
     inkscape:current-layer="layer1"
     showgrid="false"
     inkscape:snap-bbox="true"
     objecttolerance="1"
     gridtolerance="50"
     guidetolerance="1"
     inkscape:window-width="1600"
     inkscape:window-height="841"
     inkscape:window-x="0"
     inkscape:window-y="27"
     showguides="true"
     inkscape:guide-bbox="true"
     inkscape:snap-intersection-grid-guide="true"
     inkscape:snap-global="true"
     inkscape:window-maximized="1"
     borderlayer="false"
     inkscape:showpageshadow="false"
     fit-margin-top="0"
     fit-margin-left="0"
     fit-margin-right="0"
     fit-margin-bottom="0">
    <inkscape:grid
       snapvisiblegridlinesonly="true"
       empspacing="5"
       enabled="true"
       visible="true"
       id="grid8063"
       type="xygrid"
       originx="-3865px"
       originy="-196.00002px" />
  </sodipodi:namedview>
  <defs
     id="defs4" />
  <metadata
     id="metadata7">
    <rdf:RDF>
      <cc:Work
         rdf:about="">
        <dc:format>image/svg+xml</dc:format>
        <dc:type
           rdf:resource="http://purl.org/dc/dcmitype/StillImage" />
        <dc:title></dc:title>
      </cc:Work>
    </rdf:RDF>
  </metadata>
  <g
     style="display:inline"
     id="layer1"
     inkscape:groupmode="layer"
     inkscape:label="artwork"
     transform="translate(-3802,-1633.3622)">
    <rect
       ry="0"
       rx="4"
       y="616.36218"
       x="417"
       height="0"
       width="1"
       id="rect8239"
       style="fill:#e6e6e6;fill-opacity:1;stroke:none" />
    <flowRoot
       xml:space="preserve"
       id="flowRoot7678"
       style="font-size:4px;font-style:normal;font-weight:normal;fill:#000000;fill-opacity:1;stroke:none;font-family:Bitstream Vera Sans"><flowRegion
         id="flowRegion7680"><rect
           id="rect7682"
           width="589.72705"
           height="144.24979"
           x="86.267029"
           y="658.96637" /></flowRegion><flowPara
         id="flowPara7684" /></flowRoot>    <flowRoot
       xml:space="preserve"
       id="flowRoot7686"
       style="font-size:4px;font-style:normal;font-weight:normal;fill:#000000;fill-opacity:1;stroke:none;font-family:Bitstream Vera Sans"><flowRegion
         id="flowRegion7688"><rect
           id="rect7690"
           width="569.92804"
           height="141.42136"
           x="86.267029"
           y="673.10852" /></flowRegion><flowPara
         id="flowPara7692" /></flowRoot>    <flowRoot
       xml:space="preserve"
       id="flowRoot3897"
       style="font-size:18px;font-style:normal;font-variant:normal;font-weight:normal;font-stretch:normal;text-align:start;line-height:125%;letter-spacing:0px;word-spacing:0px;writing-mode:lr-tb;text-anchor:start;fill:#000000;fill-opacity:1;stroke:none;font-family:Droid Sans;-inkscape-font-specification:Droid Sans"
       transform="translate(-640,-882.63782)"><flowRegion
         id="flowRegion3899"><rect
           id="rect3901"
           width="587.87793"
           height="220.99062"
           x="768.10327"
           y="431.61032" /></flowRegion><flowPara
         id="flowPara3903" /></flowRoot>    <rect
       style="fill:#e6e6e6;fill-opacity:1;stroke:none"
       id="rect8239-1"
       y="478.88251"
       x="235.1926"
       ry="0"
       rx="4"
       height="0"
       width="1" />
    <rect
       style="fill:#333333;fill-opacity:1;stroke:none"
       id="rect8019"
       y="88.8825"
       x="144.1926"
       height="0"
       width="0" />
    <path
       sodipodi:nodetypes="ssssssssssssssssss"
       inkscape:connector-curvature="0"
       id="path10049"
       d="m 3944,2062.3622 c -1.108,0 -2,0.8919 -2,2 l 0,38 c 0,1.1081 0.892,2 2,2 l 31,0 c 1.1081,0 2,-0.8919 2,-2 l 0,-38 c 0,-1.1081 -0.8919,-2 -2,-2 z m 1.8125,3 27.375,0 c 0.4435,0 0.8125,0.3691 0.8125,0.8125 l 0,34.375 c 0,0.4434 -0.369,0.8125 -0.8125,0.8125 l -27.375,0 c -0.4434,0 -0.8125,-0.3691 -0.8125,-0.8125 l 0,-34.375 c 0,-0.4434 0.3691,-0.8125 0.8125,-0.8125 z"
       style="fill:#000000;fill-opacity:1;fill-rule:nonzero;stroke:none" />
    <path
       inkscape:connector-curvature="0"
       id="path10051"
       d="m 3939.5625,2219.456 c -0.9867,0.3009 -1.5625,1.3493 -1.5625,2.8125 l 0,21.0937 0,21.0625 c 0,1.4521 0.5568,2.4406 1.5313,2.75 l 21.75,-23.875 -21.7188,-23.8437 z m 3.7813,1.1562 19.2812,21.2188 6.4375,-7.0625 -25.7187,-14.1563 z m 27.5625,15.1563 -6.9063,7.5625 6.9375,7.5937 9.4375,-5.1875 c 1.7529,-0.9831 2.4375,-1.4395 2.4375,-2.375 0,-0.9355 -0.6846,-1.3919 -2.4375,-2.375 l -9.4687,-5.2187 z m -8.25,9.0625 -19.375,21.25 25.8437,-14.1563 -6.4687,-7.0937 z"
       style="fill:#000000;fill-opacity:1;fill-rule:nonzero;stroke:none" />
    <path
       sodipodi:nodetypes="ccccc"
       inkscape:connector-curvature="0"
       id="path10053"
       d="m 3938,2641.3619 0,4 46,0 0,-4 z"
       style="fill:#000000;fill-opacity:1;stroke:none" />
    <path
       style="fill:#000000;fill-opacity:1;stroke:none"
       d="m 4009.75,2649.3622 0,3 34.5,0 0,-3 z"
       id="path10055"
       inkscape:connector-curvature="0"
       sodipodi:nodetypes="ccccc" />
    <path
       sodipodi:nodetypes="ccccc"
       inkscape:connector-curvature="0"
       id="path10057"
       d="m 4065.5,2658.3619 0,2 23,0 0,-2 z"
       style="fill:#000000;fill-opacity:1;stroke:none" />
    <path
       style="fill:#000000;fill-opacity:1;stroke:none"
       d="m 4106.3751,2662.3622 0,2 17.25,0 0,-2 z"
       id="path10059"
       inkscape:connector-curvature="0"
       sodipodi:nodetypes="ccccc" />
    <g
       style="fill:#000000;display:inline;enable-background:new"
       transform="matrix(0.7698249,0,0,0.7698249,3924.5896,1804.2529)"
       id="g10061">
      <g
         style="fill:#000000;display:inline"
         display="inline"
         id="g10063">
        <path
           style="fill:#000000"
           inkscape:connector-curvature="0"
           d="m 48.087,23.533 c -15.202,0 -27.521,12.321 -27.521,27.521 0,15.201 12.319,27.521 27.521,27.521 15.201,0 27.525,-12.32 27.525,-27.521 0,-15.2 -12.324,-27.521 -27.525,-27.521 z m 0,50.629 c -12.76,0 -23.105,-10.346 -23.105,-23.107 0,-12.76 10.346,-23.107 23.105,-23.107 12.764,0 23.109,10.348 23.109,23.107 0,12.761 -10.345,23.107 -23.109,23.107 z"
           id="path10065" />
        <path
           style="fill:#000000"
           d="M 44.887,53.184 58.951,65.697 61.174,63.418 49.542,50.951 48.554,32.41 l -2.923,0 -1.007,18.805 z"
           id="polygon10067" />
        <path
           style="fill:#000000"
           inkscape:connector-curvature="0"
           d="m 63.175,17.424 -1.585,4.431 c 7.375,3.419 13.241,9.522 16.313,17.075 l 4.406,-1.576 C 78.755,28.485 71.861,21.33 63.175,17.424 z"
           id="path10069" />
        <path
           style="fill:#000000"
           inkscape:connector-curvature="0"
           d="M 34.589,21.854 33.003,17.423 C 24.157,21.4 17.185,28.751 13.69,37.846 l 4.402,1.575 c 3.022,-7.778 8.962,-14.078 16.497,-17.567 z"
           id="path10071" />
      </g>
    </g>
    <g
       id="g10073"
       transform="matrix(0.5833415,0,0,0.5833415,3999.2782,1821.6183)"
       style="fill:#000000;display:inline;enable-background:new">
      <g
         id="g10075"
         display="inline"
         style="fill:#000000;display:inline">
        <path
           id="path10077"
           d="m 48.087,23.533 c -15.202,0 -27.521,12.321 -27.521,27.521 0,15.201 12.319,27.521 27.521,27.521 15.201,0 27.525,-12.32 27.525,-27.521 0,-15.2 -12.324,-27.521 -27.525,-27.521 z m 0,50.629 c -12.76,0 -23.105,-10.346 -23.105,-23.107 0,-12.76 10.346,-23.107 23.105,-23.107 12.764,0 23.109,10.348 23.109,23.107 0,12.761 -10.345,23.107 -23.109,23.107 z"
           inkscape:connector-curvature="0"
           style="fill:#000000" />
        <path
           style="fill:#000000"
           d="m 49.542,50.951 -0.988,-18.541 -2.923,0 -1.007,18.805 0.263,1.969 14.064,12.513 2.223,-2.279 z"
           id="polygon10079" />
        <path
           id="path10081"
           d="m 63.175,17.424 -1.585,4.431 c 7.375,3.419 13.241,9.522 16.313,17.075 l 4.406,-1.576 C 78.755,28.485 71.861,21.33 63.175,17.424 z"
           inkscape:connector-curvature="0"
           style="fill:#000000" />
        <path
           id="path10083"
           d="M 34.589,21.854 33.003,17.423 C 24.157,21.4 17.185,28.751 13.69,37.846 l 4.402,1.575 c 3.022,-7.778 8.962,-14.078 16.497,-17.567 z"
           inkscape:connector-curvature="0"
           style="fill:#000000" />
      </g>
    </g>
    <path
       inkscape:connector-curvature="0"
       id="path10085"
       d="m 4071.4688,1845.9872 -0.25,0.094 c -3.5247,1.5844 -6.295,4.5324 -7.6875,8.1562 l -0.094,0.2188 0.2188,0.094 1.75,0.625 0.2187,0.062 0.094,-0.2188 c 1.16,-2.9854 3.4201,-5.4105 6.3125,-6.75 l 0.2188,-0.094 -0.062,-0.2187 -0.625,-1.7188 -0.094,-0.25 z m 11.5313,0 -0.094,0.25 -0.625,1.7188 -0.094,0.2187 0.2187,0.094 c 2.8313,1.3127 5.071,3.6639 6.25,6.5626 l 0.094,0.2187 0.25,-0.062 1.7188,-0.625 0.25,-0.094 -0.094,-0.25 c -1.4162,-3.534 -4.1642,-6.3813 -7.625,-7.9374 l -0.25,-0.094 z m -5.7813,2.75 c -5.9537,0 -10.7812,4.7971 -10.7812,10.75 0,5.9534 4.8275,10.7812 10.7812,10.7812 5.9534,0 10.7813,-4.8278 10.7813,-10.7812 0,-5.9529 -4.8279,-10.75 -10.7813,-10.75 z m 0,2.1562 c 4.7536,0 8.625,3.842 8.625,8.5938 0,4.7526 -3.8714,8.625 -8.625,8.625 -4.7521,0 -8.5937,-3.8724 -8.5937,-8.625 0,-4.7521 3.8419,-8.5938 8.5937,-8.5938 z m -0.9687,1.2188 -0.375,7.375 0.094,0.7812 5.5,4.9063 0.875,-0.9063 -4.5625,-4.875 -0.375,-7.2812 -1.1563,0 z"
       style="fill:#000000" />
    <path
       inkscape:connector-curvature="0"
       id="path10087"
       d="m 4110.7188,1853.1434 -0.25,0.094 c -2.667,1.1991 -4.7589,3.4144 -5.8125,6.1562 l -0.094,0.25 0.25,0.094 1.2813,0.4375 0.2187,0.094 0.094,-0.2187 c 0.867,-2.2314 2.5883,-4.0615 4.75,-5.0625 l 0.1875,-0.094 -0.062,-0.1874 -0.4687,-1.3126 -0.094,-0.25 z m 8.5938,0 -0.094,0.25 -0.4688,1.3126 -0.062,0.1874 0.2188,0.094 c 2.1161,0.981 3.7751,2.74 4.6562,4.9062 l 0.094,0.2188 0.25,-0.062 1.2813,-0.4687 0.25,-0.094 -0.094,-0.25 c -1.0716,-2.674 -3.1627,-4.8225 -5.7813,-6 l -0.25,-0.094 z m -4.2813,2.125 c -4.4797,0 -8.125,3.6459 -8.125,8.125 0,4.4793 3.6453,8.0938 8.125,8.0938 4.4794,0 8.0938,-3.6144 8.0938,-8.0938 0,-4.4791 -3.6144,-8.1249 -8.0938,-8.125 z m 0,1.625 c 3.5977,0 6.5,2.9039 6.5,6.5 0,3.597 -2.9023,6.5001 -6.5,6.5 -3.5966,0 -6.5312,-2.903 -6.5312,-6.5 0,-3.5965 2.9349,-6.5 6.5312,-6.5 z m -0.75,1 -0.2812,5.5313 0.062,0.5937 4.1562,3.6876 0.6563,-0.6563 -3.4375,-3.6875 -0.2813,-5.4688 -0.875,0 z"
       style="fill:#000000" />
    <path
       d="m 3961.0008,2301.3611 c -12.15,0 -22.0008,9.8498 -22.0008,22.0004 0,9.0086 5.4172,16.7476 13.1689,20.1503 -0.062,-1.5363 -0.011,-3.3804 0.3829,-5.0519 0.4229,-1.786 2.8309,-11.9879 2.8309,-11.9879 0,0 -0.703,-1.4046 -0.703,-3.4809 0,-3.2602 1.8898,-5.6951 4.2429,-5.6951 2.0012,0 2.968,1.5031 2.968,3.3028 0,2.0117 -1.283,5.0207 -1.9429,7.8076 -0.5512,2.3338 1.1701,4.2372 3.4724,4.2372 4.1683,0 6.9757,-5.3536 6.9757,-11.6969 0,-4.8217 -3.2476,-8.4308 -9.1543,-8.4308 -6.6736,0 -10.8311,4.9768 -10.8311,10.5359 0,1.9167 0.5651,3.2685 1.4503,4.315 0.407,0.4808 0.4636,0.6743 0.3162,1.2263 -0.1055,0.4047 -0.3479,1.3793 -0.4482,1.7656 -0.1465,0.557 -0.5979,0.7562 -1.1015,0.5505 -3.0738,-1.2549 -4.5055,-4.621 -4.5055,-8.405 0,-6.2495 5.2707,-13.7433 15.7235,-13.7433 8.3996,0 13.9279,6.0782 13.9279,12.6028 0,8.6303 -4.798,15.0779 -11.8706,15.0779 -2.3753,0 -4.6096,-1.284 -5.3748,-2.7422 0,0 -1.2773,5.0689 -1.5478,6.0478 -0.4664,1.6963 -1.3795,3.3914 -2.2143,4.7128 1.9787,0.5842 4.0689,0.9022 6.2352,0.9022 12.1489,0 21.9992,-9.85 21.9992,-22.0007 0,-12.1506 -9.8503,-22.0004 -21.9992,-22.0004"
       style="fill:#000000;fill-opacity:1;fill-rule:nonzero;stroke:none"
       id="path10089"
       inkscape:connector-curvature="0" />
    <path
       id="path10091"
       d="m 3960.9955,2381.3622 c -12.1498,0 -21.9955,9.8459 -21.9955,21.9954 0,12.1498 9.8457,22.0046 21.9955,22.0046 12.1496,0 22.0045,-9.8548 22.0045,-22.0046 0,-12.1495 -9.8549,-21.9954 -22.0045,-21.9954 z m -0.2297,12.3575 c 3.0503,0 5.523,2.4293 5.6137,5.4575 l 0,1.7733 -2.5634,0.7717 -1.7181,-0.8085 0,-1.5435 c 0,-0.7358 -0.5965,-1.3323 -1.3322,-1.3323 -0.7358,0 -1.3323,0.5965 -1.3323,1.3323 l -0.01,8.0208 c -0.043,3.0704 -2.5421,5.5494 -5.6229,5.5494 -3.108,0 -5.6228,-2.5148 -5.6228,-5.6229 l 0,-3.4913 4.2998,0 0,3.4454 c 0,0.7357 0.5965,1.3322 1.3322,1.3322 0.7358,0 1.3323,-0.5965 1.3323,-1.3322 l 0,-8.1311 c 0.1082,-3.0128 2.5836,-5.4208 5.6228,-5.4208 z m 8.2781,10.1065 4.309,0 0,3.4913 c 0,3.1081 -2.524,5.6229 -5.632,5.6229 -3.0911,0 -5.5961,-2.4922 -5.6229,-5.5769 l 0,-3.5097 1.7181,0.8085 2.5634,-0.7718 0,3.5373 c 0,0.7357 0.5965,1.3322 1.3322,1.3322 0.7357,0 1.3322,-0.5965 1.3322,-1.3322 l 0,-3.6016 z"
       style="fill:#000000;fill-opacity:1;fill-rule:nonzero;stroke:none"
       inkscape:connector-curvature="0" />
    <path
       inkscape:connector-curvature="0"
       style="fill:#000000;fill-opacity:1;fill-rule:nonzero;stroke:none"
       d="m 4026.9967,2395.3622 c -8.8362,0 -15.9966,7.1606 -15.9966,15.9967 0,8.8362 7.1604,16.0033 15.9966,16.0033 8.8361,0 16.0034,-7.1671 16.0034,-16.0033 0,-8.8361 -7.1673,-15.9967 -16.0034,-15.9967 z m -0.167,8.9873 c 2.2184,0 4.0167,1.7668 4.0826,3.969 l 0,1.2897 -1.8642,0.5612 -1.2496,-0.588 0,-1.1225 c 0,-0.5351 -0.4338,-0.9689 -0.9688,-0.9689 -0.5351,0 -0.9689,0.4338 -0.9689,0.9689 l -0.01,5.8334 c -0.032,2.2329 -1.8488,4.0358 -4.0894,4.0358 -2.2604,0 -4.0894,-1.8289 -4.0894,-4.0893 l 0,-2.5392 3.1272,0 0,2.5057 c 0,0.5352 0.4338,0.969 0.9689,0.969 0.5351,0 0.9689,-0.4338 0.9689,-0.969 l 0,-5.9134 c 0.079,-2.1911 1.879,-3.9424 4.0893,-3.9424 z m 6.0204,7.3501 3.1339,0 0,2.5392 c 0,2.2604 -1.8357,4.0893 -4.0961,4.0893 -2.248,0 -4.0698,-1.8125 -4.0894,-4.0558 l 0,-2.5526 1.2496,0.5881 1.8642,-0.5614 0,2.5726 c 0,0.5351 0.4339,0.9689 0.9689,0.9689 0.5351,0 0.9689,-0.4338 0.9689,-0.9689 l 0,-2.6194 z"
       id="path10093" />
    <path
       id="path10095"
       d="m 4076.9977,2407.9468 c -6.3043,0 -11.4131,5.1088 -11.4131,11.413 0,6.3043 5.1088,11.4178 11.4131,11.4178 6.3042,0 11.4178,-5.1135 11.4178,-11.4178 0,-6.3042 -5.1136,-11.413 -11.4178,-11.413 z m -0.1192,6.4121 c 1.5827,0 2.8658,1.2605 2.9128,2.8318 l 0,0.9201 -1.3301,0.4004 -0.8915,-0.4195 0,-0.8009 c 0,-0.3818 -0.3095,-0.6912 -0.6912,-0.6912 -0.3818,0 -0.6913,0.3094 -0.6913,0.6912 l -0.01,4.1619 c -0.023,1.5932 -1.3191,2.8795 -2.9176,2.8795 -1.6127,0 -2.9176,-1.3049 -2.9176,-2.9176 l 0,-1.8116 2.2311,0 0,1.7876 c 0,0.3819 0.3095,0.6914 0.6913,0.6914 0.3817,0 0.6912,-0.3095 0.6912,-0.6914 l 0,-4.2189 c 0.056,-1.5633 1.3406,-2.8128 2.9177,-2.8128 z m 4.2954,5.2441 2.2359,0 0,1.8116 c 0,1.6127 -1.3097,2.9176 -2.9224,2.9176 -1.6039,0 -2.9037,-1.2932 -2.9177,-2.8937 l 0,-1.8212 0.8915,0.4196 1.3301,-0.4006 0,1.8355 c 0,0.3818 0.3096,0.6912 0.6913,0.6912 0.3818,0 0.6913,-0.3094 0.6913,-0.6912 l 0,-1.8688 z"
       style="fill:#000000;fill-opacity:1;fill-rule:nonzero;stroke:none"
       inkscape:connector-curvature="0" />
    <path
       inkscape:connector-curvature="0"
       style="fill:#000000;fill-opacity:1;fill-rule:nonzero;stroke:none"
       d="m 4115.2167,2414.746 c -4.703,0 -8.5141,3.8111 -8.5141,8.514 0,4.703 3.8111,8.5176 8.5141,8.5176 4.7029,0 8.5176,-3.8146 8.5176,-8.5176 0,-4.7029 -3.8147,-8.514 -8.5176,-8.514 z m -0.089,4.7833 c 1.1807,0 2.1378,0.9404 2.1729,2.1125 l 0,0.6864 -0.9922,0.2987 -0.6651,-0.3129 0,-0.5975 c 0,-0.2848 -0.2309,-0.5156 -0.5156,-0.5156 -0.2848,0 -0.5157,0.2308 -0.5157,0.5156 l 0,3.1048 c -0.017,1.1885 -0.984,2.1481 -2.1766,2.1481 -1.203,0 -2.1765,-0.9735 -2.1765,-2.1765 l 0,-1.3515 1.6644,0 0,1.3336 c 0,0.2848 0.2309,0.5157 0.5157,0.5157 0.2848,0 0.5157,-0.2309 0.5157,-0.5157 l 0,-3.1473 c 0.042,-1.1662 1.0001,-2.0984 2.1765,-2.0984 z m 3.2043,3.9121 1.668,0 0,1.3515 c 0,1.203 -0.9771,2.1765 -2.1801,2.1765 -1.1965,0 -2.1662,-0.9648 -2.1766,-2.1587 l 0,-1.3586 0.6651,0.313 0.9922,-0.2988 0,1.3692 c 0,0.2848 0.2309,0.5157 0.5157,0.5157 0.2848,0 0.5157,-0.2309 0.5157,-0.5157 l 0,-1.3941 z"
       id="path10097" />
    <path
       inkscape:connector-curvature="0"
       id="path10099"
       style="fill:#000000;fill-opacity:1;fill-rule:nonzero;stroke:none"
       d="m 4027.0006,2315.3614 c -8.8364,0 -16.0005,7.1635 -16.0005,16.0003 0,6.5517 3.9397,12.1801 9.5773,14.6548 -0.045,-1.1174 -0.01,-2.4585 0.2785,-3.6742 0.3076,-1.2989 2.0588,-8.7184 2.0588,-8.7184 0,0 -0.5113,-1.0216 -0.5113,-2.5316 0,-2.371 1.3745,-4.1419 3.0858,-4.1419 1.4554,0 2.1585,1.0932 2.1585,2.4021 0,1.463 -0.9331,3.6514 -1.413,5.6782 -0.4008,1.6973 0.851,3.0816 2.5254,3.0816 3.0315,0 5.0733,-3.8935 5.0733,-8.5068 0,-3.5067 -2.362,-6.1315 -6.6578,-6.1315 -4.8535,0 -7.8771,3.6195 -7.8771,7.6625 0,1.3939 0.411,2.377 1.0547,3.1381 0.2961,0.3497 0.3372,0.4904 0.23,0.8919 -0.077,0.2943 -0.253,1.0031 -0.3259,1.2841 -0.1066,0.4051 -0.4349,0.5499 -0.8012,0.4003 -2.2354,-0.9126 -3.2767,-3.3607 -3.2767,-6.1127 0,-4.5451 3.8333,-9.9951 11.4353,-9.9951 6.1088,0 10.1294,4.4205 10.1294,9.1656 0,6.2766 -3.4895,10.9658 -8.6332,10.9658 -1.7274,0 -3.3524,-0.9338 -3.9089,-1.9943 0,0 -0.929,3.6864 -1.1257,4.3984 -0.3392,1.2336 -1.0032,2.4664 -1.6104,3.4275 1.4391,0.4248 2.9592,0.6561 4.5347,0.6561 8.8356,0 15.9995,-7.1636 15.9995,-16.0005 0,-8.8368 -7.1639,-16.0003 -15.9995,-16.0003" />
    <path
       d="m 4077.0004,2328.3616 c -6.075,0 -11.0003,4.925 -11.0003,11.0003 0,4.5042 2.7085,8.3738 6.5844,10.0751 -0.031,-0.7682 0,-1.6902 0.1914,-2.526 0.2115,-0.893 1.4155,-5.9939 1.4155,-5.9939 0,0 -0.3515,-0.7023 -0.3515,-1.7405 0,-1.63 0.9449,-2.8475 2.1215,-2.8475 1.0005,0 1.4839,0.7516 1.4839,1.6514 0,1.0058 -0.6415,2.5104 -0.9714,3.9038 -0.2756,1.1669 0.585,2.1186 1.7362,2.1186 2.0841,0 3.4878,-2.6768 3.4878,-5.8484 0,-2.4109 -1.6238,-4.2154 -4.5771,-4.2154 -3.3368,0 -5.4156,2.4884 -5.4156,5.2679 0,0.9583 0.2826,1.6342 0.7252,2.1575 0.2035,0.2404 0.2318,0.3371 0.1581,0.6132 -0.053,0.2023 -0.174,0.6896 -0.2241,0.8828 -0.073,0.2785 -0.299,0.378 -0.5508,0.2752 -1.5369,-0.6274 -2.2527,-2.3105 -2.2527,-4.2025 0,-3.1248 2.6354,-6.8716 7.8617,-6.8716 4.1998,0 6.964,3.0391 6.964,6.3013 0,4.3152 -2.399,7.539 -5.9353,7.539 -1.1877,0 -2.3048,-0.642 -2.6874,-1.3711 0,0 -0.6387,2.5344 -0.7739,3.0239 -0.2332,0.8481 -0.6897,1.6957 -1.1072,2.3564 0.9894,0.2921 2.0345,0.4511 3.1176,0.4511 6.0745,0 10.9997,-4.925 10.9997,-11.0003 0,-6.0753 -4.9252,-11.0003 -10.9997,-11.0003"
       style="fill:#000000;fill-opacity:1;fill-rule:nonzero;stroke:none"
       id="path10101"
       inkscape:connector-curvature="0" />
    <path
       inkscape:connector-curvature="0"
       id="path10103"
       style="fill:#000000;fill-opacity:1;fill-rule:nonzero;stroke:none"
       d="m 4115.0003,2334.3617 c -4.9704,0 -9.0002,4.0296 -9.0002,9.0003 0,3.6853 2.2161,6.8513 5.3872,8.2432 -0.025,-0.6285 0,-1.3829 0.1567,-2.0667 0.173,-0.7306 1.158,-4.9041 1.158,-4.9041 0,0 -0.2875,-0.5746 -0.2875,-1.424 0,-1.3338 0.7731,-2.3298 1.7357,-2.3298 0.8187,0 1.2142,0.6149 1.2142,1.3511 0,0.823 -0.5249,2.0539 -0.7949,3.1941 -0.2254,0.9547 0.4787,1.7333 1.4206,1.7333 1.7052,0 2.8537,-2.1901 2.8537,-4.785 0,-1.9725 -1.3286,-3.4491 -3.745,-3.4491 -2.7301,0 -4.4309,2.0361 -4.4309,4.3102 0,0.7842 0.2312,1.3371 0.5933,1.7652 0.1665,0.1967 0.1897,0.2758 0.1294,0.5018 -0.043,0.1655 -0.1423,0.5641 -0.1834,0.7222 -0.06,0.228 -0.2446,0.3093 -0.4506,0.2253 -1.2575,-0.5134 -1.8431,-1.8904 -1.8431,-3.4384 0,-2.5568 2.1562,-5.6223 6.4323,-5.6223 3.4362,0 5.6978,2.4865 5.6978,5.1557 0,3.5306 -1.9629,6.1681 -4.8562,6.1681 -0.9717,0 -1.8857,-0.5252 -2.1988,-1.1217 0,0 -0.5225,2.0735 -0.6332,2.474 -0.1907,0.694 -0.5643,1.3874 -0.9058,1.9279 0.8095,0.2391 1.6645,0.3692 2.5507,0.3692 4.9701,0 8.9998,-4.0296 8.9998,-9.0002 0,-4.9707 -4.0297,-9.0003 -8.9998,-9.0003" />
    <g
       style="fill:#000000"
       transform="matrix(0.68273565,0,0,0.68273565,3928.2284,1730.59)"
       id="g10105">
      <g
         style="fill:#000000;display:inline"
         display="inline"
         id="g10107">
        <path
           style="fill:#000000"
           inkscape:connector-curvature="0"
           d="m 47.971,34.049 c -7.702,0.013 -13.939,6.273 -13.926,13.979 0.016,7.702 6.277,13.938 13.98,13.921 C 55.728,61.935 61.966,55.678 61.949,47.973 61.939,40.268 55.68,34.032 47.971,34.049 z"
           id="path10109" />
        <path
           style="fill:#000000"
           inkscape:connector-curvature="0"
           d="M 83.145,45.945 74.82,45.959 C 73.819,32.699 63.2,22.121 49.935,21.17 l -0.016,-8.33 -3.978,0.007 0.016,8.333 C 32.7,22.182 22.121,32.801 21.172,46.062 l -8.33,0.018 0.006,3.973 8.328,-0.016 c 1.005,13.258 11.625,23.834 24.888,24.785 l 0.013,8.338 3.977,-0.006 -0.018,-8.338 C 63.296,73.814 73.872,63.195 74.827,49.931 l 8.332,-0.014 -0.014,-3.972 z m -35.106,25 C 35.385,70.97 25.074,60.697 25.052,48.044 25.025,35.389 35.299,25.072 47.953,25.047 60.609,25.024 70.926,35.299 70.948,47.956 70.976,60.609 60.693,70.922 48.039,70.945 z"
           id="path10111" />
      </g>
    </g>
    <path
       inkscape:connector-curvature="0"
       id="path10113"
       d="m 3961,2463.3622 c -11.5978,0 -21,9.4021 -21,21 l -8,0 10.5,13 10.5,-13 -8.0625,0 c 0,-8.8804 7.1822,-16.0937 16.0625,-16.0937 8.8804,0 16.0938,7.2133 16.0938,16.0937 0,8.8803 -7.2134,16.0625 -16.0938,16.0625 -2.7751,0 -5.3804,-0.7023 -7.6562,-1.9375 l -3.125,3.875 c 3.1543,1.8938 6.8343,3 10.7812,3 11.5979,0 21,-9.4022 21,-21 0,-11.5979 -9.4021,-21 -21,-21 z"
       style="fill:#000000;fill-opacity:1;fill-rule:nonzero;stroke:none" />
    <path
       inkscape:connector-curvature="0"
       style="fill:#000000;fill-opacity:1;fill-rule:nonzero;stroke:none"
       d="m 4027.6132,2474.9872 c -9.0436,0 -16.375,7.3314 -16.375,16.375 l -6.2381,0 8.1875,10.1369 8.1875,-10.1369 -6.2869,0 c 0,-6.9246 5.6004,-12.5493 12.525,-12.5493 6.9245,0 12.5492,5.6247 12.5492,12.5493 0,6.9245 -5.6247,12.5249 -12.5492,12.5249 -2.164,0 -4.1955,-0.5476 -5.9701,-1.5108 l -2.4368,3.0216 c 2.4596,1.4767 5.3292,2.3393 8.4069,2.3393 9.0435,0 16.375,-7.3315 16.375,-16.375 0,-9.0436 -7.3315,-16.375 -16.375,-16.375 z"
       id="path10115" />
    <path
       id="path10117"
       d="m 4077.0801,2488.4422 c -6.0309,0 -10.92,4.8891 -10.92,10.92 l -4.16,0 5.46,6.76 5.46,-6.76 -4.1925,0 c 0,-4.6177 3.7347,-8.3688 8.3525,-8.3688 4.6178,0 8.3687,3.7511 8.3687,8.3688 0,4.6177 -3.7509,8.3525 -8.3687,8.3525 -1.4431,0 -2.7979,-0.3651 -3.9813,-1.0076 l -1.625,2.0151 c 1.6402,0.9848 3.5539,1.56 5.6063,1.56 6.0308,0 10.92,-4.8891 10.92,-10.92 0,-6.0309 -4.8892,-10.92 -10.92,-10.92 z"
       style="fill:#000000;fill-opacity:1;fill-rule:nonzero;stroke:none"
       inkscape:connector-curvature="0" />
    <path
       inkscape:connector-curvature="0"
       style="fill:#000000;fill-opacity:1;fill-rule:nonzero;stroke:none"
       d="m 4115.0201,2495.3822 c -4.4072,0 -7.98,3.5728 -7.98,7.98 l -3.04,0 3.99,4.94 3.99,-4.94 -3.0638,0 c 0,-3.3745 2.7292,-6.1157 6.1038,-6.1157 3.3745,0 6.1156,2.7412 6.1156,6.1157 0,3.3745 -2.7411,6.1037 -6.1156,6.1037 -1.0546,0 -2.0446,-0.2668 -2.9094,-0.7363 l -1.1875,1.4726 c 1.1986,0.7197 2.597,1.14 4.0969,1.14 4.4071,0 7.98,-3.5728 7.98,-7.98 0,-4.4072 -3.5729,-7.98 -7.98,-7.98 z"
       id="path10119" />
    <path
       inkscape:connector-curvature="0"
       style="fill:#000000;fill-opacity:1;fill-rule:nonzero;stroke:none"
       d="m 3960.9999,2543.3622 c 11.5979,0 21,9.4021 21,21 l 8,0 -10.5,13 -10.5,-13 8.0625,0 c 0,-8.8804 -7.1821,-16.0937 -16.0625,-16.0937 -8.8803,0 -16.0937,7.2133 -16.0937,16.0937 0,8.8803 7.2134,16.0625 16.0937,16.0625 2.7752,0 5.3805,-0.7023 7.6563,-1.9375 l 3.125,3.875 c -3.1543,1.8938 -6.8343,3 -10.7813,3 -11.5978,0 -21,-9.4022 -21,-21 0,-11.5979 9.4022,-21 21,-21 z"
       id="path10121" />
    <path
       id="path10123"
       d="m 4026.3869,2554.9872 c 9.0436,0 16.375,7.3314 16.375,16.375 l 6.2381,0 -8.1875,10.1369 -8.1875,-10.1369 6.2868,0 c 0,-6.9246 -5.6003,-12.5493 -12.5249,-12.5493 -6.9246,0 -12.5493,5.6247 -12.5493,12.5493 0,6.9245 5.6247,12.5249 12.5493,12.5249 2.164,0 4.1955,-0.5476 5.9701,-1.5108 l 2.4367,3.0216 c -2.4596,1.4767 -5.3291,2.3393 -8.4068,2.3393 -9.0436,0 -16.375,-7.3315 -16.375,-16.375 0,-9.0436 7.3314,-16.375 16.375,-16.375 z"
       style="fill:#000000;fill-opacity:1;fill-rule:nonzero;stroke:none"
       inkscape:connector-curvature="0" />
    <path
       inkscape:connector-curvature="0"
       style="fill:#000000;fill-opacity:1;fill-rule:nonzero;stroke:none"
       d="m 4076.92,2568.4422 c 6.0309,0 10.92,4.8891 10.92,10.92 l 4.16,0 -5.46,6.76 -5.46,-6.76 4.1925,0 c 0,-4.6177 -3.7347,-8.3688 -8.3525,-8.3688 -4.6178,0 -8.3687,3.7511 -8.3687,8.3688 0,4.6177 3.7509,8.3525 8.3687,8.3525 1.4431,0 2.7978,-0.3651 3.9813,-1.0076 l 1.625,2.0151 c -1.6403,0.9848 -3.5539,1.56 -5.6063,1.56 -6.0309,0 -10.92,-4.8891 -10.92,-10.92 0,-6.0309 4.8891,-10.92 10.92,-10.92 z"
       id="path10125" />
    <path
       id="path10127"
       d="m 4114.98,2575.3822 c 4.4072,0 7.98,3.5728 7.98,7.98 l 3.04,0 -3.99,4.94 -3.99,-4.94 3.0638,0 c 0,-3.3745 -2.7292,-6.1157 -6.1038,-6.1157 -3.3745,0 -6.1156,2.7412 -6.1156,6.1157 0,3.3745 2.7411,6.1037 6.1156,6.1037 1.0546,0 2.0446,-0.2668 2.9094,-0.7363 l 1.1875,1.4726 c -1.1986,0.7197 -2.5971,1.14 -4.0969,1.14 -4.4072,0 -7.98,-3.5728 -7.98,-7.98 0,-4.4072 3.5728,-7.98 7.98,-7.98 z"
       style="fill:#000000;fill-opacity:1;fill-rule:nonzero;stroke:none"
       inkscape:connector-curvature="0" />
    <g
       id="g10129"
       transform="matrix(0.51196723,0,0,0.51196723,4002.4254,1746.787)"
       style="fill:#000000">
      <g
         id="g10131"
         display="inline"
         style="fill:#000000;display:inline">
        <path
           id="path10133"
           d="m 47.971,34.049 c -7.702,0.013 -13.939,6.273 -13.926,13.979 0.016,7.702 6.277,13.938 13.98,13.921 C 55.728,61.935 61.966,55.678 61.949,47.973 61.939,40.268 55.68,34.032 47.971,34.049 z"
           inkscape:connector-curvature="0"
           style="fill:#000000" />
        <path
           id="path10135"
           d="M 83.145,45.945 74.82,45.959 C 73.819,32.699 63.2,22.121 49.935,21.17 l -0.016,-8.33 -3.978,0.007 0.016,8.333 C 32.7,22.182 22.121,32.801 21.172,46.062 l -8.33,0.018 0.006,3.973 8.328,-0.016 c 1.005,13.258 11.625,23.834 24.888,24.785 l 0.013,8.338 3.977,-0.006 -0.018,-8.338 C 63.296,73.814 73.872,63.195 74.827,49.931 l 8.332,-0.014 -0.014,-3.972 z m -35.106,25 C 35.385,70.97 25.074,60.697 25.052,48.044 25.025,35.389 35.299,25.072 47.953,25.047 60.609,25.024 70.926,35.299 70.948,47.956 70.976,60.609 60.693,70.922 48.039,70.945 z"
           inkscape:connector-curvature="0"
           style="fill:#000000" />
      </g>
    </g>
    <g
       style="fill:#000000"
       transform="matrix(0.34137941,0,0,0.34137941,4060.1161,1763.4731)"
       id="g10137">
      <g
         style="fill:#000000;display:inline"
         display="inline"
         id="g10139">
        <path
           style="fill:#000000"
           inkscape:connector-curvature="0"
           d="m 47.971,34.049 c -7.702,0.013 -13.939,6.273 -13.926,13.979 0.016,7.702 6.277,13.938 13.98,13.921 C 55.728,61.935 61.966,55.678 61.949,47.973 61.939,40.268 55.68,34.032 47.971,34.049 z"
           id="path10141" />
        <path
           style="fill:#000000"
           inkscape:connector-curvature="0"
           d="M 83.145,45.945 74.82,45.959 C 73.819,32.699 63.2,22.121 49.935,21.17 l -0.016,-8.33 -3.978,0.007 0.016,8.333 C 32.7,22.182 22.121,32.801 21.172,46.062 l -8.33,0.018 0.006,3.973 8.328,-0.016 c 1.005,13.258 11.625,23.834 24.888,24.785 l 0.013,8.338 3.977,-0.006 -0.018,-8.338 C 63.296,73.814 73.872,63.195 74.827,49.931 l 8.332,-0.014 -0.014,-3.972 z m -35.106,25 C 35.385,70.97 25.074,60.697 25.052,48.044 25.025,35.389 35.299,25.072 47.953,25.047 60.609,25.024 70.926,35.299 70.948,47.956 70.976,60.609 60.693,70.922 48.039,70.945 z"
           id="path10143" />
      </g>
    </g>
    <g
       id="g10145"
       transform="matrix(0.25603293,0,0,0.25603293,4102.2121,1771.5705)"
       style="fill:#000000">
      <g
         id="g10147"
         display="inline"
         style="fill:#000000;display:inline">
        <path
           id="path10149"
           d="m 47.971,34.049 c -7.702,0.013 -13.939,6.273 -13.926,13.979 0.016,7.702 6.277,13.938 13.98,13.921 C 55.728,61.935 61.966,55.678 61.949,47.973 61.939,40.268 55.68,34.032 47.971,34.049 z"
           inkscape:connector-curvature="0"
           style="fill:#000000" />
        <path
           id="path10151"
           d="M 83.145,45.945 74.82,45.959 C 73.819,32.699 63.2,22.121 49.935,21.17 l -0.016,-8.33 -3.978,0.007 0.016,8.333 C 32.7,22.182 22.121,32.801 21.172,46.062 l -8.33,0.018 0.006,3.973 8.328,-0.016 c 1.005,13.258 11.625,23.834 24.888,24.785 l 0.013,8.338 3.977,-0.006 -0.018,-8.338 C 63.296,73.814 73.872,63.195 74.827,49.931 l 8.332,-0.014 -0.014,-3.972 z m -35.106,25 C 35.385,70.97 25.074,60.697 25.052,48.044 25.025,35.389 35.299,25.072 47.953,25.047 60.609,25.024 70.926,35.299 70.948,47.956 70.976,60.609 60.693,70.922 48.039,70.945 z"
           inkscape:connector-curvature="0"
           style="fill:#000000" />
      </g>
    </g>
    <path
       inkscape:connector-curvature="0"
       id="path10153"
       d="m 3937,1906.3622 0,30 c 0,2.216 1.784,4 4,4 l 40,0 c 2.216,0 4,-1.784 4,-4 l 0,-23 -4,0 0,-7 -4,0 -40,0 z m 3,3 38,0 0,24 c 0,2.216 0.892,4 2,4 l -38.0312,0 c -1.0837,0 -1.9688,-0.885 -1.9688,-1.9687 l 0,-26.0313 z m 4,5 0,2 30,0 0,-2 -30,0 z m 0,5 0,12 9,0 0,-12 -9,0 z m 12,0 0,2 18,0 0,-2 -18,0 z m 0,5 0,2 18,0 0,-2 -18,0 z m 0,5 0,2 18,0 0,-2 -18,0 z"
       style="fill:#000000;fill-opacity:1;fill-rule:nonzero;stroke:none" />
    <path
       inkscape:connector-curvature="0"
       id="path10155"
       d="m 4009.0001,1918.3622 0,22.9375 c 0,1.6945 1.338,3.0625 3,3.0625 l 30,0 c 1.662,0 3,-1.368 3,-3.0625 l 0,-17.9375 -3,0 0,-5 -3,0 -30,0 z m 2,2 29,0 0,18.8438 c 0,1.7411 0.6856,3.1562 1.5312,3.1562 l -29.0312,0 c -0.8271,0 -1.5,-0.7111 -1.5,-1.5625 l 0,-20.4375 z"
       style="fill:#000000;fill-opacity:1;fill-rule:nonzero;stroke:none" />
    <path
       inkscape:connector-curvature="0"
       id="path10157"
       d="m 4014.0001,1924.3622 0,1.4391 23,0 0,-1.4391 -23,0 z"
       style="fill:#000000;fill-opacity:1;fill-rule:nonzero;stroke:none" />
    <path
       inkscape:connector-curvature="0"
       id="path10159"
       d="m 4014.0001,1928.3034 0,9.1765 7,0 0,-9.1765 -7,0 z"
       style="fill:#000000;fill-opacity:1;fill-rule:nonzero;stroke:none" />
    <path
       inkscape:connector-curvature="0"
       id="path10161"
       d="m 4023.3501,1928.3034 0,1.5294 13.65,0 0,-1.5294 -13.65,0 z"
       style="fill:#000000;fill-opacity:1;fill-rule:nonzero;stroke:none" />
    <path
       inkscape:connector-curvature="0"
       id="path10163"
       d="m 4023.3501,1932.1269 0,1.5294 13.65,0 0,-1.5294 -13.65,0 z"
       style="fill:#000000;fill-opacity:1;fill-rule:nonzero;stroke:none" />
    <path
       inkscape:connector-curvature="0"
       id="path10165"
       d="m 4023.3501,1935.9504 0,1.5295 13.65,0 0,-1.5295 -13.65,0 z"
       style="fill:#000000;fill-opacity:1;fill-rule:nonzero;stroke:none" />
    <path
       style="fill:#000000;fill-opacity:1;fill-rule:nonzero;stroke:none"
       d="m 4064.0001,1930.3066 0,15.9289 c 0,1.1767 0.9291,2.1267 2.0833,2.1267 l 20.8333,0 c 1.1542,0 2.0834,-0.95 2.0834,-2.1267 l 0,-12.4567 -2.0834,0 0,-3.4722 -2.0833,0 -20.8333,0 z m 1.3888,1.3889 20.1389,0 0,13.086 c 0,1.2092 0.4762,2.1918 1.0634,2.1918 l -20.1606,0 c -0.5743,0 -1.0417,-0.4938 -1.0417,-1.085 l 0,-14.1928 z"
       id="path10167"
       inkscape:connector-curvature="0" />
    <path
       style="fill:#000000;fill-opacity:1;fill-rule:nonzero;stroke:none"
       d="m 4068.0001,1934.3622 0,0.9872 15,0 0,-0.9872 -15,0 z"
       id="path10169"
       inkscape:connector-curvature="0" />
    <path
       style="fill:#000000;fill-opacity:1;fill-rule:nonzero;stroke:none"
       d="m 4068.0001,1937.3622 0,6.9841 4.5652,0 0,-6.9841 -4.5652,0 z"
       id="path10171"
       inkscape:connector-curvature="0" />
    <path
       style="fill:#000000;fill-opacity:1;fill-rule:nonzero;stroke:none"
       d="m 4074.0979,1937.3128 0,1.0494 8.9022,0 0,-1.0494 -8.9022,0 z"
       id="path10173"
       inkscape:connector-curvature="0" />
    <path
       style="fill:#000000;fill-opacity:1;fill-rule:nonzero;stroke:none"
       d="m 4074.0979,1940.3622 0,1.0493 8.9022,0 0,-1.0493 -8.9022,0 z"
       id="path10175"
       inkscape:connector-curvature="0" />
    <path
       style="fill:#000000;fill-opacity:1;fill-rule:nonzero;stroke:none"
       d="m 4074.0979,1943.3622 0,1.0494 8.9022,0 0,-1.0494 -8.9022,0 z"
       id="path10177"
       inkscape:connector-curvature="0" />
    <path
       sodipodi:nodetypes="csssscccccccscssc"
       inkscape:connector-curvature="0"
       id="path10179"
       d="m 4106.0001,1937.3622 0,10.5938 c 0,0.7822 0.6214,1.4062 1.4062,1.4062 l 14.6563,0 c 0.7848,0 1.9375,-0.624 1.9375,-1.4062 l 0,-8.125 -1.9375,0 0,-2.4688 -1.4063,0 z m 1,1 14,0 0,8.5625 c 0,0.7915 0.3245,1.4375 0.7187,1.4375 l -14.0312,0 c -0.3856,0 -0.6875,-0.3005 -0.6875,-0.6875 z"
       style="fill:#000000;fill-opacity:1;fill-rule:nonzero;stroke:none" />
    <path
       sodipodi:nodetypes="ccccc"
       inkscape:connector-curvature="0"
       id="path10181"
       d="m 4108.0001,1940.3622 0,1 12,0 0,-1 z"
       style="fill:#000000;fill-opacity:1;fill-rule:nonzero;stroke:none" />
    <path
       sodipodi:nodetypes="ccccc"
       inkscape:connector-curvature="0"
       id="path10183"
       d="m 4108.0001,1942.3622 0,3 3,0 0,-3 z"
       style="fill:#000000;fill-opacity:1;fill-rule:nonzero;stroke:none" />
    <path
       sodipodi:nodetypes="ccccc"
       inkscape:connector-curvature="0"
       id="path10185"
       d="m 4112.0001,1942.3622 0,1 8,0 0,-1 z"
       style="fill:#000000;fill-opacity:1;fill-rule:nonzero;stroke:none" />
    <path
       sodipodi:nodetypes="ccccc"
       inkscape:connector-curvature="0"
       id="path10187"
       d="m 4112.0001,1944.3622 0,1 8,0 0,-1 z"
       style="fill:#000000;fill-opacity:1;fill-rule:nonzero;stroke:none" />
    <path
       inkscape:connector-curvature="0"
       style="fill:#000000;fill-opacity:1;fill-rule:nonzero;stroke:none"
       d="m 4011.1158,2234.2869 c -0.7046,0.2149 -1.1157,0.9635 -1.1157,2.0084 l 0,15.0627 0,15.0405 c 0,1.0369 0.3975,1.7428 1.0934,1.9637 l 15.5314,-17.0488 -15.5091,-17.0265 z m 2.7002,0.8256 13.7684,15.1521 4.597,-5.0432 -18.3654,-10.1089 z m 19.682,10.823 -4.9317,5.4002 4.954,5.4226 6.7392,-3.7043 c 1.2516,-0.702 1.7406,-1.028 1.7406,-1.696 0,-0.668 -0.489,-0.9939 -1.7406,-1.6959 l -6.7615,-3.7266 z m -5.8913,6.4714 -13.8354,15.1743 18.4547,-10.1088 -4.6193,-5.0655 z"
       id="path10189" />
    <path
       id="path10191"
       d="m 4065.7859,2247.3622 c -0.4963,0.1514 -0.7858,0.6786 -0.7858,1.4146 l 0,10.609 0,10.5933 c 0,0.7303 0.28,1.2275 0.7701,1.3831 l 10.9391,-12.0079 -10.9234,-11.9921 z m 1.9018,0.5815 9.6974,10.672 3.2378,-3.5521 -12.9352,-7.1199 z m 13.8625,7.6229 -3.4735,3.8035 3.4892,3.8192 4.7465,-2.609 c 0.8816,-0.4944 1.226,-0.7241 1.226,-1.1945 0,-0.4705 -0.3444,-0.7001 -1.226,-1.1945 l -4.7622,-2.6247 z m -4.1494,4.5579 -9.7446,10.6876 12.9981,-7.1198 -3.2535,-3.5678 z"
       style="fill:#000000;fill-opacity:1;fill-rule:nonzero;stroke:none"
       inkscape:connector-curvature="0" />
    <path
       inkscape:connector-curvature="0"
       id="path10193"
       d="m 4106.5938,2254.3622 c -0.3722,0.1136 -0.5937,0.5105 -0.5937,1.0625 l 0,7.9688 0,7.9375 c 0,0.5477 0.1949,0.9145 0.5625,1.0312 l 8.2187,-9 -8.1875,-9 z m 1.7188,0.4375 7.2812,8 2.4063,-2.6562 -9.6875,-5.3438 z m 10.6875,5.7188 -2.5938,2.8437 2.5938,2.875 3.5625,-1.9687 c 0.6612,-0.3709 0.9375,-0.5222 0.9375,-0.875 0,-0.3529 -0.2763,-0.5355 -0.9375,-0.9063 l -3.5625,-1.9687 z m -3.4063,3.4062 -7.3125,8.0313 9.75,-5.3438 -2.4375,-2.6875 z"
       style="fill:#000000;fill-opacity:1;fill-rule:nonzero;stroke:none" />
    <path
       inkscape:connector-curvature="0"
       id="path10195"
       d="m 3961,2142.3622 c -3.8659,0 -7,3.134 -7,7 0,1.5468 0.4942,2.9664 1.3438,4.125 0.5718,6.2608 1.6562,11.7566 1.6562,18.875 l -1,2 1,2 8,0 1,-2 -1,-2 c 0,-7.1184 1.0845,-12.6142 1.6563,-18.875 0.8496,-1.1586 1.3437,-2.5782 1.3437,-4.125 0,-3.866 -3.134,-7 -7,-7 z m -16,36 -3,9 38,0 -3,-9 -32,0 z"
       style="fill:#000000;fill-opacity:1;fill-rule:nonzero;stroke:none" />
    <path
       sodipodi:nodetypes="ssccccccccssccccc"
       inkscape:connector-curvature="0"
       style="fill:#000000;fill-opacity:1;fill-rule:nonzero;stroke:none"
       d="m 4027.0001,2156.2043 c -2.8487,0 -5.1579,2.3093 -5.1579,5.1579 0,1.1398 0.3641,2.1858 0.9901,3.0395 0.4213,4.6132 1.2204,7.768 1.2204,13.0132 l -0.7369,1.4737 0.7369,1.4736 5.8947,0 0.7369,-1.4736 -0.7369,-1.4737 c 0,-5.2452 0.7991,-8.4 1.2204,-13.0132 0.626,-0.8537 0.9901,-1.8997 0.9901,-3.0395 0,-2.8486 -2.3092,-5.1579 -5.1578,-5.1579 z m -11.7895,26.1579 -2.2105,7 28,0 -2.2106,-7 z"
       id="path10197" />
    <path
       id="path10199"
       d="m 4077,2167.678 c -2.0347,0 -3.6842,1.6494 -3.6842,3.6842 0,0.8142 0.2601,1.5613 0.7073,2.1711 0.3009,3.2951 0.8717,6.0298 0.8717,9.7763 l -0.5263,1.0527 0.5263,1.0525 4.2105,0 0.5263,-1.0525 -0.5263,-1.0527 c 0,-3.7465 0.5708,-6.4812 0.8717,-9.7763 0.4472,-0.6098 0.7073,-1.3569 0.7073,-2.1711 0,-2.0348 -1.6495,-3.6842 -3.6843,-3.6842 z m -8.421,18.6842 -1.5789,5 20,0 -1.579,-5 z"
       style="fill:#000000;fill-opacity:1;fill-rule:nonzero;stroke:none"
       inkscape:connector-curvature="0"
       sodipodi:nodetypes="ssccccccccssccccc" />
    <path
       sodipodi:nodetypes="ssccccccccssccccc"
       inkscape:connector-curvature="0"
       style="fill:#000000;fill-opacity:1;fill-rule:nonzero;stroke:none"
       d="m 4115,2173.4148 c -1.6277,0 -2.9473,1.3196 -2.9473,2.9473 0,0.6515 0.2081,1.2492 0.5658,1.7371 0.2407,2.636 0.6973,4.5816 0.6973,7.5788 l -0.421,0.8422 0.421,0.842 3.3685,0 0.421,-0.842 -0.421,-0.8422 c 0,-2.9972 0.4566,-4.9428 0.6973,-7.5788 0.3577,-0.4879 0.5658,-1.0856 0.5658,-1.7371 0,-1.6277 -1.3196,-2.9473 -2.9474,-2.9473 z m -6.7368,14.9474 -1.2631,4 16,0 -1.2632,-4 z"
       id="path10201" />
    <path
       style="fill:#000000;fill-opacity:1;fill-rule:nonzero;stroke:none"
       d="m 3949,2070.3613 21,0 0,5.0008 -21,0 z"
       id="rect10203" />
    <path
       style="fill:#000000;fill-opacity:1;fill-rule:nonzero;stroke:none"
       d="m 3949,2078.3621 5,0 0,4 -5,0 z"
       id="rect10205" />
    <path
       style="fill:#000000;fill-opacity:1;fill-rule:nonzero;stroke:none"
       d="m 3957,2078.3621 5,0 0,4 -5,0 z"
       id="rect10207" />
    <path
       style="fill:#000000;fill-opacity:1;fill-rule:nonzero;stroke:none"
       d="m 3965,2078.3621 5,0 0,4 -5,0 z"
       id="rect10209" />
    <path
       style="fill:#000000;fill-opacity:1;fill-rule:nonzero;stroke:none"
       d="m 3949,2085.3621 5,0 0,4 -5,0 z"
       id="rect10211" />
    <path
       style="fill:#000000;fill-opacity:1;fill-rule:nonzero;stroke:none"
       d="m 3957,2085.3621 5,0 0,4 -5,0 z"
       id="rect10213" />
    <path
       style="fill:#000000;fill-opacity:1;fill-rule:nonzero;stroke:none"
       d="m 3965,2085.3621 5,0 0,4 -5,0 z"
       id="rect10215" />
    <path
       style="fill:#000000;fill-opacity:1;fill-rule:nonzero;stroke:none"
       d="m 3949,2092.3621 5,0 0,4 -5,0 z"
       id="rect10217" />
    <path
       style="fill:#000000;fill-opacity:1;fill-rule:nonzero;stroke:none"
       d="m 3957,2092.3621 5,0 0,4 -5,0 z"
       id="rect10219" />
    <path
       style="fill:#000000;fill-opacity:1;fill-rule:nonzero;stroke:none"
       d="m 3965,2092.3621 5,0 0,4 -5,0 z"
       id="rect10221" />
    <path
       style="fill:#000000;fill-opacity:1;fill-rule:nonzero;stroke:none"
       d="m 4015.4858,2076.3622 c -0.8232,0 -1.4857,0.6795 -1.4857,1.5238 l 0,27.9524 c 0,0.8443 0.6625,1.5238 1.4857,1.5238 l 23.0285,0 c 0.8232,0 1.4858,-0.6795 1.4858,-1.5238 l 0,-27.9524 c 0,-0.8443 -0.6626,-1.5238 -1.4858,-1.5238 z m 1.3464,2.2857 20.3357,0 c 0.3294,0 0.6036,0.2812 0.6036,0.6191 l 0,25.1904 c 0,0.3379 -0.2742,0.6191 -0.6036,0.6191 l -20.3357,0 c -0.3294,0 -0.6036,-0.2812 -0.6036,-0.6191 l 0,-25.1904 c 0,-0.3379 0.2742,-0.6191 0.6036,-0.6191 z"
       id="path10223"
       inkscape:connector-curvature="0"
       sodipodi:nodetypes="ssssssssssssssssss" />
    <path
       style="fill:#000000;fill-opacity:1;fill-rule:nonzero;stroke:none"
       d="m 4019.0002,2082.3623 16,0 0,3.9999 -16,0 z"
       id="rect10225" />
    <path
       style="fill:#000000;fill-opacity:1;fill-rule:nonzero;stroke:none"
       d="m 4019.0002,2088.3623 4,0 0,3.1111 -4,0 z"
       id="rect10227" />
    <path
       style="fill:#000000;fill-opacity:1;fill-rule:nonzero;stroke:none"
       d="m 4025.0002,2088.3623 4.0001,0 0,3.1111 -4.0001,0 z"
       id="rect10229" />
    <path
       style="fill:#000000;fill-opacity:1;fill-rule:nonzero;stroke:none"
       d="m 4031.0002,2088.3623 4,0 0,3.1111 -4,0 z"
       id="rect10231" />
    <path
       style="fill:#000000;fill-opacity:1;fill-rule:nonzero;stroke:none"
       d="m 4019.0002,2093.2512 4,0 0,3.1111 -4,0 z"
       id="rect10233" />
    <path
       style="fill:#000000;fill-opacity:1;fill-rule:nonzero;stroke:none"
       d="m 4025.0002,2093.2512 4.0001,0 0,3.1111 -4.0001,0 z"
       id="rect10235" />
    <path
       style="fill:#000000;fill-opacity:1;fill-rule:nonzero;stroke:none"
       d="m 4031.0002,2093.2512 4,0 0,3.1111 -4,0 z"
       id="rect10237" />
    <path
       style="fill:#000000;fill-opacity:1;fill-rule:nonzero;stroke:none"
       d="m 4019.0002,2098.2512 4,0 0,3.1111 -4,0 z"
       id="rect10239" />
    <path
       style="fill:#000000;fill-opacity:1;fill-rule:nonzero;stroke:none"
       d="m 4025.0002,2098.2512 4.0001,0 0,3.1111 -4.0001,0 z"
       id="rect10241" />
    <path
       style="fill:#000000;fill-opacity:1;fill-rule:nonzero;stroke:none"
       d="m 4031.0002,2098.2512 4,0 0,3.1111 -4,0 z"
       id="rect10243" />
    <path
       style="fill:#000000;fill-opacity:1;fill-rule:nonzero;stroke:none"
       d="m 4069.0286,2087.3622 c -0.5698,0 -1.0285,0.4672 -1.0285,1.0476 l 0,20.9048 c 0,0.5804 0.4587,1.0476 1.0285,1.0476 l 15.9429,0 c 0.5699,0 1.0286,-0.4672 1.0286,-1.0476 l 0,-20.9048 c 0,-0.5804 -0.4587,-1.0476 -1.0286,-1.0476 z m 0.9322,1.5714 14.0785,0 c 0.2281,0 0.4179,0.1934 0.4179,0.4256 l 0,19.006 c 0,0.2322 -0.1898,0.4256 -0.4179,0.4256 l -14.0785,0 c -0.2281,0 -0.4179,-0.1934 -0.4179,-0.4256 l 0,-19.006 c 0,-0.2322 0.1898,-0.4256 0.4179,-0.4256 z"
       id="path10245"
       inkscape:connector-curvature="0"
       sodipodi:nodetypes="ssssssssssssssssss" />
    <path
       style="fill:#000000;fill-opacity:1;fill-rule:nonzero;stroke:none"
       d="m 4072.0002,2091.3623 10,0 0,2.9998 -10,0 z"
       id="rect10247" />
    <path
       style="fill:#000000;fill-opacity:1;fill-rule:nonzero;stroke:none"
       d="m 4072.0002,2096.3623 2.381,0 0,2 -2.381,0 z"
       id="rect10249" />
    <path
       style="fill:#000000;fill-opacity:1;fill-rule:nonzero;stroke:none"
       d="m 4075.8096,2096.3623 2.3809,0 0,2 -2.3809,0 z"
       id="rect10251" />
    <path
       style="fill:#000000;fill-opacity:1;fill-rule:nonzero;stroke:none"
       d="m 4079.6191,2096.3623 2.381,0 0,2 -2.381,0 z"
       id="rect10253" />
    <path
       style="fill:#000000;fill-opacity:1;fill-rule:nonzero;stroke:none"
       d="m 4072.0002,2100.3623 2.381,0 0,2 -2.381,0 z"
       id="rect10255" />
    <path
       style="fill:#000000;fill-opacity:1;fill-rule:nonzero;stroke:none"
       d="m 4075.8096,2100.3623 2.3809,0 0,2 -2.3809,0 z"
       id="rect10257" />
    <path
       style="fill:#000000;fill-opacity:1;fill-rule:nonzero;stroke:none"
       d="m 4079.6191,2100.3623 2.381,0 0,2 -2.381,0 z"
       id="rect10259" />
    <path
       style="fill:#000000;fill-opacity:1;fill-rule:nonzero;stroke:none"
       d="m 4072.0002,2104.3623 2.381,0 0,2 -2.381,0 z"
       id="rect10261" />
    <path
       style="fill:#000000;fill-opacity:1;fill-rule:nonzero;stroke:none"
       d="m 4075.8096,2104.3623 2.3809,0 0,2 -2.3809,0 z"
       id="rect10263" />
    <path
       style="fill:#000000;fill-opacity:1;fill-rule:nonzero;stroke:none"
       d="m 4079.6191,2104.3623 2.381,0 0,2 -2.381,0 z"
       id="rect10265" />
    <path
       style="fill:#000000;fill-opacity:1;fill-rule:nonzero;stroke:none"
       d="m 4107.8572,2094.3622 c -0.4749,0 -0.8571,0.3822 -0.8571,0.8571 l 0,16.2858 c 0,0.4749 0.3822,0.8571 0.8571,0.8571 l 13.2857,0 c 0.4749,0 0.8572,-0.3822 0.8572,-0.8571 l 0,-16.2858 c 0,-0.4749 -0.3823,-0.8571 -0.8572,-0.8571 z m 0.7768,1.2857 11.7321,0 c 0.1901,0 0.3482,0.1582 0.3482,0.3482 l 0,14.7322 c 0,0.19 -0.1581,0.3482 -0.3482,0.3482 l -11.7321,0 c -0.1901,0 -0.3482,-0.1582 -0.3482,-0.3482 l 0,-14.7322 c 0,-0.19 0.1581,-0.3482 0.3482,-0.3482 z"
       id="path10267"
       inkscape:connector-curvature="0"
       sodipodi:nodetypes="ssssssssssssssssss" />
    <path
       style="fill:#000000;fill-opacity:1;fill-rule:nonzero;stroke:none"
       d="m 4110.0005,2097.3623 9,0 0,2.1432 -9,0 z"
       id="rect10269" />
    <path
       style="fill:#000000;fill-opacity:1;fill-rule:nonzero;stroke:none"
       d="m 4110.0005,2101.6479 2.1428,0 0,1.7143 -2.1428,0 z"
       id="rect10271" />
    <path
       style="fill:#000000;fill-opacity:1;fill-rule:nonzero;stroke:none"
       d="m 4113.4287,2101.6479 2.1429,0 0,1.7143 -2.1429,0 z"
       id="rect10273" />
    <path
       style="fill:#000000;fill-opacity:1;fill-rule:nonzero;stroke:none"
       d="m 4116.8574,2101.6479 2.1429,0 0,1.7143 -2.1429,0 z"
       id="rect10275" />
    <path
       style="fill:#000000;fill-opacity:1;fill-rule:nonzero;stroke:none"
       d="m 4110.0005,2104.6479 2.1428,0 0,1.7143 -2.1428,0 z"
       id="rect10277" />
    <path
       style="fill:#000000;fill-opacity:1;fill-rule:nonzero;stroke:none"
       d="m 4113.4287,2104.6479 2.1429,0 0,1.7143 -2.1429,0 z"
       id="rect10279" />
    <path
       style="fill:#000000;fill-opacity:1;fill-rule:nonzero;stroke:none"
       d="m 4116.8574,2104.6479 2.1429,0 0,1.7143 -2.1429,0 z"
       id="rect10281" />
    <path
       style="fill:#000000;fill-opacity:1;fill-rule:nonzero;stroke:none"
       d="m 4110.0005,2108.2192 2.1428,0 0,1.7143 -2.1428,0 z"
       id="rect10283" />
    <path
       style="fill:#000000;fill-opacity:1;fill-rule:nonzero;stroke:none"
       d="m 4113.4287,2108.2192 2.1429,0 0,1.7143 -2.1429,0 z"
       id="rect10285" />
    <path
       style="fill:#000000;fill-opacity:1;fill-rule:nonzero;stroke:none"
       d="m 4116.8574,2108.2192 2.1429,0 0,1.7143 -2.1429,0 z"
       id="rect10287" />
    <path
       sodipodi:nodetypes="cccccccccccccccccccccccc"
       inkscape:connector-curvature="0"
       id="path10289"
       d="m 3937,1984.3622 0,21.875 -4.4687,4.8125 2.9375,2.7187 11.9687,-12.875 10,9.0313 7.8438,-7.8437 5.1562,4.125 16.9688,-17 -2.8125,-2.8438 -14.4375,14.4688 -5.1563,-4.125 -7.6875,7.7187 -10.125,-9.125 -4.1875,4.5 0,-15.4375 z m 6,25.7812 -6,6.4376 0,7.7812 48,0 0,-6 -42,0 z"
       style="fill:#000000;fill-opacity:1;fill-rule:nonzero;stroke:none" />
    <path
       style="fill:#000000;fill-opacity:1;fill-rule:nonzero;stroke:none"
       d="m 4010.0001,1998.3622 0,15.1218 -3.3289,3.4192 2.0872,1.9318 8.5041,-9.1481 7.1052,6.4171 5.5732,-5.5731 3.6637,2.9308 12.0567,-12.0789 -1.9984,-2.0206 -10.2582,10.2805 -3.6636,-2.9309 -5.4622,5.4843 -7.1941,-6.4836 -2.9753,3.1975 0,-10.5478 z m 4,17.8972 -4,4.574 0,5.5288 33.9515,0 0,-4 -29.9515,0 z"
       id="path10291"
       inkscape:connector-curvature="0"
       sodipodi:nodetypes="cccccccccccccccccccccccc" />
    <path
       style="fill:#000000;fill-opacity:1;fill-rule:nonzero;stroke:none"
       d="m 4065.0001,2009.7944 0,10.7011 -2.1861,2.3543 1.437,1.33 5.855,-6.2984 4.892,4.418 3.8371,-3.8371 2.5224,2.018 8.3011,-8.3164 -1.3759,-1.3911 -7.0627,7.078 -2.5225,-2.0179 -3.7607,3.776 -4.9531,-4.4639 -1.9836,2.2013 0,-7.5519 z m 3,12.612 -3,3.1493 0,3.8065 23.4814,0 0,-3 -20.4814,0 z"
       id="path10293"
       inkscape:connector-curvature="0"
       sodipodi:nodetypes="cccccccccccccccccccccccc" />
    <path
       sodipodi:nodetypes="cccccccccccccccccccccccc"
       inkscape:connector-curvature="0"
       id="path10295"
       d="m 4106.9203,2016.3622 0,7.6562 -1.5641,1.6844 1.0281,0.9516 4.1891,-4.5063 3.5,3.161 2.7453,-2.7453 1.8047,1.4438 5.9391,-5.9501 -0.9844,-0.9953 -5.0531,5.064 -1.8047,-1.4436 -2.6907,2.7015 -3.5437,-3.1937 -1.4192,1.5749 0,-5.4031 z m 2.1464,9.6669 -2.1464,2.2534 0,2.0797 16.8,0 0,-2.1464 -14.6536,0 z"
       style="fill:#000000;fill-opacity:1;fill-rule:nonzero;stroke:none" />
  </g>
</svg>
